;brawler;map;others_brawlers;victory;defeat
0;gemGrab Spring Trap;TICK;;5,0;2,0
1;gemGrab Spring Trap;TICK;BO;3,0;2,0
2;gemGrab Spring Trap;TICK;JESSIE;1,0;1,0
3;gemGrab Spring Trap;TICK;RICO;1,0;0,0
4;gemGrab Spring Trap;TICK;EMZ;1,0;0,0
5;gemGrab Spring Trap;TICK;POCO;1,0;0,0
6;gemGrab Spring Trap;TICK;SANDY;1,0;0,0
7;gemGrab Spring Trap;TICK;PIPER;1,0;0,0
8;gemGrab Spring Trap;TICK;SHELLY;1,0;0,0
9;gemGrab Spring Trap;TICK;BO EMZ;1,0;0,0
10;gemGrab Spring Trap;TICK;BO POCO;1,0;0,0
11;gemGrab Spring Trap;TICK;BO SANDY;1,0;0,0
12;gemGrab Spring Trap;TICK;JESSIE PIPER;1,0;0,0
13;gemGrab Spring Trap;TICK;RICO SHELLY;1,0;0,0
14;gemGrab Spring Trap;ROSA;;3,0;1,0
15;gemGrab Spring Trap;ROSA;DARRYL;2,0;0,0
16;gemGrab Spring Trap;ROSA;JESSIE;2,0;0,0
17;gemGrab Spring Trap;ROSA;BEA;1,0;0,0
18;gemGrab Spring Trap;ROSA;SANDY;1,0;0,0
19;gemGrab Spring Trap;ROSA;DARRYL SANDY;1,0;0,0
20;gemGrab Spring Trap;ROSA;BEA JESSIE;1,0;0,0
21;gemGrab Spring Trap;ROSA;DARRYL JESSIE;1,0;0,0
22;gemGrab Spring Trap;NITA;;2,0;0,0
23;gemGrab Spring Trap;NITA;PAM;2,0;0,0
24;gemGrab Spring Trap;NITA;ROSA;2,0;0,0
25;gemGrab Spring Trap;NITA;PAM ROSA;2,0;0,0
26;gemGrab Spring Trap;BEA;;1,0;0,0
27;gemGrab Spring Trap;BEA;PAM;1,0;0,0
28;gemGrab Spring Trap;BEA;ROSA;1,0;0,0
29;gemGrab Spring Trap;BEA;PAM ROSA;1,0;0,0
30;hotZone Temple of Boom;FRANK;;9,0;5,0
31;hotZone Temple of Boom;FRANK;DYNAMIKE;3,0;2,0
32;hotZone Temple of Boom;FRANK;SPROUT;3,0;2,0
33;hotZone Temple of Boom;FRANK;TICK;3,0;0,0
34;hotZone Temple of Boom;FRANK;EMZ;2,0;0,0
35;hotZone Temple of Boom;FRANK;JESSIE;2,0;1,0
36;hotZone Temple of Boom;FRANK;CARL;1,0;0,0
37;hotZone Temple of Boom;FRANK;DARRYL;1,0;0,0
38;hotZone Temple of Boom;FRANK;BEA;1,0;0,0
39;hotZone Temple of Boom;FRANK;BO;1,0;1,0
40;hotZone Temple of Boom;FRANK;PAM;1,0;0,0
41;hotZone Temple of Boom;FRANK;DYNAMIKE SPROUT;3,0;2,0
42;hotZone Temple of Boom;FRANK;EMZ JESSIE;1,0;0,0
43;hotZone Temple of Boom;FRANK;EMZ PAM;1,0;0,0
44;hotZone Temple of Boom;FRANK;CARL TICK;1,0;0,0
45;hotZone Temple of Boom;FRANK;DARRYL JESSIE;1,0;0,0
46;hotZone Temple of Boom;FRANK;BEA TICK;1,0;0,0
47;hotZone Temple of Boom;FRANK;BO TICK;1,0;0,0
48;hotZone Temple of Boom;PAM;;6,0;2,0
49;hotZone Temple of Boom;PAM;BO;2,0;0,0
50;hotZone Temple of Boom;PAM;BIBI;1,0;1,0
51;hotZone Temple of Boom;PAM;GENE;1,0;0,0
52;hotZone Temple of Boom;PAM;CARL;1,0;0,0
53;hotZone Temple of Boom;PAM;BARLEY;1,0;0,0
54;hotZone Temple of Boom;PAM;DARRYL;1,0;0,0
55;hotZone Temple of Boom;PAM;JESSIE;1,0;0,0
56;hotZone Temple of Boom;PAM;ROSA;1,0;1,0
57;hotZone Temple of Boom;PAM;GALE;1,0;0,0
58;hotZone Temple of Boom;PAM;EMZ;1,0;0,0
59;hotZone Temple of Boom;PAM;POCO;1,0;0,0
60;hotZone Temple of Boom;PAM;BIBI DARRYL;1,0;0,0
61;hotZone Temple of Boom;PAM;GENE JESSIE;1,0;0,0
62;hotZone Temple of Boom;PAM;BO ROSA;1,0;0,0
63;hotZone Temple of Boom;PAM;BO GALE;1,0;0,0
64;hotZone Temple of Boom;PAM;CARL EMZ;1,0;0,0
65;hotZone Temple of Boom;PAM;BARLEY POCO;1,0;0,0
66;hotZone Temple of Boom;BO;;4,0;1,0
67;hotZone Temple of Boom;BO;PAM;2,0;0,0
68;hotZone Temple of Boom;BO;DARRYL;1,0;1,0
69;hotZone Temple of Boom;BO;MORTIS;1,0;0,0
70;hotZone Temple of Boom;BO;EMZ;1,0;0,0
71;hotZone Temple of Boom;BO;EL PRIMO;1,0;0,0
72;hotZone Temple of Boom;BO;GENE;1,0;0,0
73;hotZone Temple of Boom;BO;TARA;1,0;0,0
74;hotZone Temple of Boom;BO;DARRYL GENE;1,0;0,0
75;hotZone Temple of Boom;BO;MORTIS TARA;1,0;0,0
76;hotZone Temple of Boom;BO;EMZ PAM;1,0;0,0
77;hotZone Temple of Boom;BO;EL PRIMO PAM;1,0;0,0
78;hotZone Temple of Boom;EMZ;;2,0;1,0
79;hotZone Temple of Boom;EMZ;BARLEY;1,0;1,0
80;hotZone Temple of Boom;EMZ;CARL;1,0;0,0
81;hotZone Temple of Boom;EMZ;PAM;1,0;1,0
82;hotZone Temple of Boom;EMZ;JESSIE;1,0;0,0
83;hotZone Temple of Boom;EMZ;BARLEY PAM;1,0;1,0
84;hotZone Temple of Boom;EMZ;CARL JESSIE;1,0;0,0
85;hotZone Temple of Boom;NITA;;2,0;2,0
86;hotZone Temple of Boom;NITA;PAM;2,0;2,0
87;hotZone Temple of Boom;NITA;DARRYL;1,0;0,0
88;hotZone Temple of Boom;NITA;EMZ;1,0;1,0
89;hotZone Temple of Boom;NITA;DARRYL PAM;1,0;0,0
90;hotZone Temple of Boom;NITA;EMZ PAM;1,0;1,0
91;hotZone Temple of Boom;COLT;;1,0;1,0
92;hotZone Temple of Boom;COLT;BARLEY;1,0;0,0
93;hotZone Temple of Boom;COLT;FRANK;1,0;0,0
94;hotZone Temple of Boom;COLT;BARLEY FRANK;1,0;0,0
95;hotZone Temple of Boom;BROCK;;1,0;0,0
96;hotZone Temple of Boom;BROCK;EL PRIMO;1,0;0,0
97;hotZone Temple of Boom;BROCK;FRANK;1,0;0,0
98;hotZone Temple of Boom;BROCK;EL PRIMO FRANK;1,0;0,0
99;brawlBall Warped Arena;NITA;;5,0;3,0
100;brawlBall Warped Arena;NITA;EMZ;2,0;0,0
101;brawlBall Warped Arena;NITA;DARRYL;1,0;0,0
102;brawlBall Warped Arena;NITA;MR. P;1,0;0,0
103;brawlBall Warped Arena;NITA;DYNAMIKE;1,0;1,0
104;brawlBall Warped Arena;NITA;SHELLY;1,0;0,0
105;brawlBall Warped Arena;NITA;SANDY;1,0;0,0
106;brawlBall Warped Arena;NITA;MORTIS;1,0;1,0
107;brawlBall Warped Arena;NITA;SPIKE;1,0;0,0
108;brawlBall Warped Arena;NITA;TARA;1,0;0,0
109;brawlBall Warped Arena;NITA;DARRYL EMZ;1,0;0,0
110;brawlBall Warped Arena;NITA;MR. P SANDY;1,0;0,0
111;brawlBall Warped Arena;NITA;DYNAMIKE MORTIS;1,0;1,0
112;brawlBall Warped Arena;NITA;SHELLY SPIKE;1,0;0,0
113;brawlBall Warped Arena;NITA;EMZ TARA;1,0;0,0
114;brawlBall Warped Arena;PAM;;4,0;1,0
115;brawlBall Warped Arena;PAM;BIBI;1,0;0,0
116;brawlBall Warped Arena;PAM;COLT;1,0;0,0
117;brawlBall Warped Arena;PAM;ROSA;1,0;0,0
118;brawlBall Warped Arena;PAM;EL PRIMO;1,0;0,0
119;brawlBall Warped Arena;PAM;DARRYL;1,0;0,0
120;brawlBall Warped Arena;PAM;NITA;1,0;0,0
121;brawlBall Warped Arena;PAM;SHELLY;1,0;0,0
122;brawlBall Warped Arena;PAM;JACKY;1,0;0,0
123;brawlBall Warped Arena;PAM;BIBI DARRYL;1,0;0,0
124;brawlBall Warped Arena;PAM;COLT NITA;1,0;0,0
125;brawlBall Warped Arena;PAM;ROSA SHELLY;1,0;0,0
126;brawlBall Warped Arena;PAM;EL PRIMO JACKY;1,0;0,0
127;brawlBall Warped Arena;BO;;4,0;0,0
128;brawlBall Warped Arena;BO;JESSIE;4,0;0,0
129;brawlBall Warped Arena;BO;SHELLY;4,0;0,0
130;brawlBall Warped Arena;BO;JESSIE SHELLY;4,0;0,0
131;brawlBall Warped Arena;TICK;;2,0;0,0
132;brawlBall Warped Arena;TICK;RICO;2,0;0,0
133;brawlBall Warped Arena;TICK;SHELLY;2,0;0,0
134;brawlBall Warped Arena;TICK;RICO SHELLY;2,0;0,0
135;brawlBall Warped Arena;POCO;;1,0;0,0
136;brawlBall Warped Arena;POCO;RICO;1,0;0,0
137;brawlBall Warped Arena;POCO;SHELLY;1,0;0,0
138;brawlBall Warped Arena;POCO;RICO SHELLY;1,0;0,0
139;hotZone Breakout Brawl;POCO;;7,0;4,0
140;hotZone Breakout Brawl;POCO;ROSA;4,0;2,0
141;hotZone Breakout Brawl;POCO;BARLEY;3,0;1,0
142;hotZone Breakout Brawl;POCO;JESSIE;2,0;0,0
143;hotZone Breakout Brawl;POCO;EL PRIMO;1,0;0,0
144;hotZone Breakout Brawl;POCO;EMZ;1,0;0,0
145;hotZone Breakout Brawl;POCO;BULL;1,0;0,0
146;hotZone Breakout Brawl;POCO;RICO;1,0;0,0
147;hotZone Breakout Brawl;POCO;MR. P;1,0;0,0
148;hotZone Breakout Brawl;POCO;BARLEY ROSA;2,0;0,0
149;hotZone Breakout Brawl;POCO;BARLEY BULL;1,0;0,0
150;hotZone Breakout Brawl;POCO;EL PRIMO RICO;1,0;0,0
151;hotZone Breakout Brawl;POCO;JESSIE MR. P;1,0;0,0
152;hotZone Breakout Brawl;POCO;EMZ ROSA;1,0;0,0
153;hotZone Breakout Brawl;POCO;JESSIE ROSA;1,0;0,0
154;hotZone Breakout Brawl;NITA;;5,0;5,0
155;hotZone Breakout Brawl;NITA;EMZ;2,0;2,0
156;hotZone Breakout Brawl;NITA;PAM;2,0;1,0
157;hotZone Breakout Brawl;NITA;BO;1,0;1,0
158;hotZone Breakout Brawl;NITA;DARRYL;1,0;1,0
159;hotZone Breakout Brawl;NITA;BROCK;1,0;0,0
160;hotZone Breakout Brawl;NITA;EL PRIMO;1,0;0,0
161;hotZone Breakout Brawl;NITA;ROSA;1,0;0,0
162;hotZone Breakout Brawl;NITA;SHELLY;1,0;0,0
163;hotZone Breakout Brawl;NITA;BO PAM;1,0;0,0
164;hotZone Breakout Brawl;NITA;DARRYL PAM;1,0;0,0
165;hotZone Breakout Brawl;NITA;BROCK ROSA;1,0;0,0
166;hotZone Breakout Brawl;NITA;EL PRIMO EMZ;1,0;0,0
167;hotZone Breakout Brawl;NITA;EMZ SHELLY;1,0;0,0
168;hotZone Breakout Brawl;FRANK;;1,0;1,0
169;hotZone Breakout Brawl;FRANK;BULL;1,0;0,0
170;hotZone Breakout Brawl;FRANK;COLT;1,0;1,0
171;hotZone Breakout Brawl;FRANK;BULL COLT;1,0;0,0
172;brawlBall Shoulder Bash;SHELLY;;5,0;0,0
173;brawlBall Shoulder Bash;SHELLY;POCO;5,0;0,0
174;brawlBall Shoulder Bash;SHELLY;JESSIE;2,0;0,0
175;brawlBall Shoulder Bash;SHELLY;COLT;1,0;0,0
176;brawlBall Shoulder Bash;SHELLY;NITA;1,0;0,0
177;brawlBall Shoulder Bash;SHELLY;ROSA;1,0;0,0
178;brawlBall Shoulder Bash;SHELLY;JESSIE POCO;2,0;0,0
179;brawlBall Shoulder Bash;SHELLY;POCO ROSA;1,0;0,0
180;brawlBall Shoulder Bash;SHELLY;COLT POCO;1,0;0,0
181;brawlBall Shoulder Bash;SHELLY;NITA POCO;1,0;0,0
182;brawlBall Shoulder Bash;EMZ;;4,0;0,0
183;brawlBall Shoulder Bash;EMZ;NITA;3,0;0,0
184;brawlBall Shoulder Bash;EMZ;POCO;3,0;0,0
185;brawlBall Shoulder Bash;EMZ;JESSIE;1,0;0,0
186;brawlBall Shoulder Bash;EMZ;SHELLY;1,0;0,0
187;brawlBall Shoulder Bash;EMZ;NITA POCO;3,0;0,0
188;brawlBall Shoulder Bash;EMZ;JESSIE SHELLY;1,0;0,0
189;brawlBall Shoulder Bash;8-BIT;;3,0;1,0
190;brawlBall Shoulder Bash;8-BIT;DYNAMIKE;2,0;0,0
191;brawlBall Shoulder Bash;8-BIT;BARLEY;1,0;1,0
192;brawlBall Shoulder Bash;8-BIT;BO;1,0;0,0
193;brawlBall Shoulder Bash;8-BIT;JACKY;1,0;0,0
194;brawlBall Shoulder Bash;8-BIT;EMZ;1,0;0,0
195;brawlBall Shoulder Bash;8-BIT;DYNAMIKE JACKY;1,0;0,0
196;brawlBall Shoulder Bash;8-BIT;BARLEY DYNAMIKE;1,0;0,0
197;brawlBall Shoulder Bash;8-BIT;BO EMZ;1,0;0,0
198;brawlBall Shoulder Bash;RICO;;1,0;2,0
199;brawlBall Shoulder Bash;RICO;FRANK;1,0;0,0
200;brawlBall Shoulder Bash;RICO;JESSIE;1,0;0,0
201;brawlBall Shoulder Bash;RICO;FRANK JESSIE;1,0;0,0
202;brawlBall Shoulder Bash;POCO;;1,0;0,0
203;brawlBall Shoulder Bash;POCO;BARLEY;1,0;0,0
204;brawlBall Shoulder Bash;POCO;RICO;1,0;0,0
205;brawlBall Shoulder Bash;POCO;BARLEY RICO;1,0;0,0
206;heist Tornado Ring;BULL;;3,0;5,0
207;heist Tornado Ring;BULL;COLT;2,0;2,0
208;heist Tornado Ring;BULL;PAM;1,0;2,0
209;heist Tornado Ring;BULL;POCO;1,0;2,0
210;heist Tornado Ring;BULL;RICO;1,0;0,0
211;heist Tornado Ring;BULL;EMZ;1,0;0,0
212;heist Tornado Ring;BULL;PAM POCO;1,0;2,0
213;heist Tornado Ring;BULL;COLT RICO;1,0;0,0
214;heist Tornado Ring;BULL;COLT EMZ;1,0;0,0
215;heist Tornado Ring;EL PRIMO;;3,0;0,0
216;heist Tornado Ring;EL PRIMO;JESSIE;3,0;0,0
217;heist Tornado Ring;EL PRIMO;BULL;2,0;0,0
218;heist Tornado Ring;EL PRIMO;NITA;1,0;0,0
219;heist Tornado Ring;EL PRIMO;BULL JESSIE;2,0;0,0
220;heist Tornado Ring;EL PRIMO;JESSIE NITA;1,0;0,0
221;heist Tornado Ring;BARLEY;;2,0;1,0
222;heist Tornado Ring;BARLEY;BULL;2,0;1,0
223;heist Tornado Ring;BARLEY;JESSIE;2,0;1,0
224;heist Tornado Ring;BARLEY;BULL JESSIE;2,0;1,0
225;heist Tornado Ring;EMZ;;2,0;1,0
226;heist Tornado Ring;EMZ;JESSIE;2,0;1,0
227;heist Tornado Ring;EMZ;NITA;2,0;0,0
228;heist Tornado Ring;EMZ;JESSIE NITA;2,0;0,0
229;heist Tornado Ring;COLT;;2,0;0,0
230;heist Tornado Ring;COLT;BROCK;2,0;0,0
231;heist Tornado Ring;COLT;BARLEY;1,0;0,0
232;heist Tornado Ring;COLT;BULL;1,0;0,0
233;heist Tornado Ring;COLT;BROCK BULL;1,0;0,0
234;heist Tornado Ring;COLT;BARLEY BROCK;1,0;0,0
235;heist Tornado Ring;DYNAMIKE;;1,0;0,0
236;heist Tornado Ring;DYNAMIKE;NITA;1,0;0,0
237;heist Tornado Ring;DYNAMIKE;POCO;1,0;0,0
238;heist Tornado Ring;DYNAMIKE;NITA POCO;1,0;0,0
239;brawlBall Well Cut;TARA;;2,0;1,0
240;brawlBall Well Cut;TARA;BIBI;2,0;1,0
241;brawlBall Well Cut;TARA;DYNAMIKE;2,0;1,0
242;brawlBall Well Cut;TARA;BIBI DYNAMIKE;2,0;1,0
243;siege Fenced In;EMZ;;3,0;4,0
244;siege Fenced In;EMZ;FRANK;2,0;1,0
245;siege Fenced In;EMZ;PAM;1,0;0,0
246;siege Fenced In;EMZ;BROCK;1,0;0,0
247;siege Fenced In;EMZ;SPROUT;1,0;2,0
248;siege Fenced In;EMZ;SHELLY;1,0;0,0
249;siege Fenced In;EMZ;PAM SPROUT;1,0;0,0
250;siege Fenced In;EMZ;FRANK SHELLY;1,0;0,0
251;siege Fenced In;EMZ;BROCK FRANK;1,0;0,0
252;siege Fenced In;DYNAMIKE;;3,0;0,0
253;siege Fenced In;DYNAMIKE;FRANK;3,0;0,0
254;siege Fenced In;DYNAMIKE;BEA;1,0;0,0
255;siege Fenced In;DYNAMIKE;LEON;1,0;0,0
256;siege Fenced In;DYNAMIKE;JESSIE;1,0;0,0
257;siege Fenced In;DYNAMIKE;BEA FRANK;1,0;0,0
258;siege Fenced In;DYNAMIKE;FRANK LEON;1,0;0,0
259;siege Fenced In;DYNAMIKE;FRANK JESSIE;1,0;0,0
260;gemGrab Double Swoosh;LEON;;2,0;1,0
261;gemGrab Double Swoosh;LEON;CARL;1,0;0,0
262;gemGrab Double Swoosh;LEON;EL PRIMO;1,0;0,0
263;gemGrab Double Swoosh;LEON;NITA;1,0;1,0
264;gemGrab Double Swoosh;LEON;SHELLY;1,0;1,0
265;gemGrab Double Swoosh;LEON;CARL NITA;1,0;0,0
266;gemGrab Double Swoosh;LEON;EL PRIMO SHELLY;1,0;0,0
267;gemGrab Double Swoosh;NITA;;1,0;0,0
268;gemGrab Double Swoosh;NITA;CROW;1,0;0,0
269;gemGrab Double Swoosh;NITA;POCO;1,0;0,0
270;gemGrab Double Swoosh;NITA;CROW POCO;1,0;0,0
271;gemGrab Bouncing Diner;BEA;;2,0;4,0
272;gemGrab Bouncing Diner;BEA;COLT;1,0;0,0
273;gemGrab Bouncing Diner;BEA;MORTIS;1,0;0,0
274;gemGrab Bouncing Diner;BEA;EMZ;1,0;0,0
275;gemGrab Bouncing Diner;BEA;TARA;1,0;0,0
276;gemGrab Bouncing Diner;BEA;COLT EMZ;1,0;0,0
277;gemGrab Bouncing Diner;BEA;MORTIS TARA;1,0;0,0
278;gemGrab Bouncing Diner;LEON;;1,0;2,0
279;gemGrab Bouncing Diner;LEON;EMZ;1,0;1,0
280;gemGrab Bouncing Diner;LEON;GENE;1,0;1,0
281;gemGrab Bouncing Diner;LEON;EMZ GENE;1,0;1,0
282;brawlBall Triple Dribble;BEA;;1,0;0,0
283;brawlBall Triple Dribble;BEA;BARLEY;1,0;0,0
284;brawlBall Triple Dribble;BEA;MORTIS;1,0;0,0
285;brawlBall Triple Dribble;BEA;BARLEY MORTIS;1,0;0,0
286;hotZone Street Brawler 2;JESSIE;;8,0;4,0
287;hotZone Street Brawler 2;JESSIE;PAM;8,0;4,0
288;hotZone Street Brawler 2;JESSIE;EMZ;6,0;1,0
289;hotZone Street Brawler 2;JESSIE;NITA;1,0;0,0
290;hotZone Street Brawler 2;JESSIE;PENNY;1,0;1,0
291;hotZone Street Brawler 2;JESSIE;EMZ PAM;6,0;1,0
292;hotZone Street Brawler 2;JESSIE;PAM PENNY;1,0;1,0
293;hotZone Street Brawler 2;JESSIE;NITA PAM;1,0;0,0
294;hotZone Street Brawler 2;8-BIT;;1,0;0,0
295;hotZone Street Brawler 2;8-BIT;BIBI;1,0;0,0
296;hotZone Street Brawler 2;8-BIT;EL PRIMO;1,0;0,0
297;hotZone Street Brawler 2;8-BIT;BIBI EL PRIMO;1,0;0,0
298;heist Crossroads;JESSIE;;8,0;3,0
299;heist Crossroads;JESSIE;NITA;4,0;2,0
300;heist Crossroads;JESSIE;COLT;3,0;0,0
301;heist Crossroads;JESSIE;BROCK;2,0;1,0
302;heist Crossroads;JESSIE;DYNAMIKE;2,0;1,0
303;heist Crossroads;JESSIE;PENNY;2,0;0,0
304;heist Crossroads;JESSIE;BARLEY;1,0;0,0
305;heist Crossroads;JESSIE;DARRYL;1,0;1,0
306;heist Crossroads;JESSIE;EL PRIMO;1,0;0,0
307;heist Crossroads;JESSIE;COLT DARRYL;1,0;0,0
308;heist Crossroads;JESSIE;COLT DYNAMIKE;1,0;0,0
309;heist Crossroads;JESSIE;BROCK DYNAMIKE;1,0;0,0
310;heist Crossroads;JESSIE;BROCK PENNY;1,0;0,0
311;heist Crossroads;JESSIE;BARLEY NITA;1,0;0,0
312;heist Crossroads;JESSIE;NITA PENNY;1,0;0,0
313;heist Crossroads;JESSIE;COLT EL PRIMO;1,0;0,0
314;heist Crossroads;JESSIE;NITA NITA;1,0;0,0
315;heist Crossroads;BULL;;8,0;8,0
316;heist Crossroads;BULL;NITA;3,0;0,0
317;heist Crossroads;BULL;POCO;3,0;4,0
318;heist Crossroads;BULL;MR. P;2,0;1,0
319;heist Crossroads;BULL;BARLEY;1,0;0,0
320;heist Crossroads;BULL;CROW;1,0;1,0
321;heist Crossroads;BULL;COLT;1,0;1,0
322;heist Crossroads;BULL;DARRYL;1,0;2,0
323;heist Crossroads;BULL;JESSIE;1,0;2,0
324;heist Crossroads;BULL;BROCK;1,0;0,0
325;heist Crossroads;BULL;DYNAMIKE;1,0;0,0
326;heist Crossroads;BULL;EL PRIMO;1,0;1,0
327;heist Crossroads;BULL;NITA POCO;2,0;0,0
328;heist Crossroads;BULL;BARLEY BROCK;1,0;0,0
329;heist Crossroads;BULL;CROW DYNAMIKE;1,0;0,0
330;heist Crossroads;BULL;COLT EL PRIMO;1,0;0,0
331;heist Crossroads;BULL;MR. P NITA;1,0;0,0
332;heist Crossroads;BULL;DARRYL MR. P;1,0;1,0
333;heist Crossroads;BULL;JESSIE POCO;1,0;1,0
334;heist Crossroads;DYNAMIKE;;5,0;3,0
335;heist Crossroads;DYNAMIKE;NITA;5,0;2,0
336;heist Crossroads;DYNAMIKE;BULL;2,0;1,0
337;heist Crossroads;DYNAMIKE;EMZ;1,0;0,0
338;heist Crossroads;DYNAMIKE;EL PRIMO;1,0;1,0
339;heist Crossroads;DYNAMIKE;MR. P;1,0;1,0
340;heist Crossroads;DYNAMIKE;BULL NITA;2,0;0,0
341;heist Crossroads;DYNAMIKE;EMZ NITA;1,0;0,0
342;heist Crossroads;DYNAMIKE;EL PRIMO NITA;1,0;1,0
343;heist Crossroads;DYNAMIKE;MR. P NITA;1,0;1,0
344;heist Crossroads;PENNY;;4,0;2,0
345;heist Crossroads;PENNY;BULL;2,0;0,0
346;heist Crossroads;PENNY;BARLEY;1,0;0,0
347;heist Crossroads;PENNY;DARRYL;1,0;0,0
348;heist Crossroads;PENNY;EL PRIMO;1,0;0,0
349;heist Crossroads;PENNY;JESSIE;1,0;0,0
350;heist Crossroads;PENNY;SPIKE;1,0;0,0
351;heist Crossroads;PENNY;DYNAMIKE;1,0;0,0
352;heist Crossroads;PENNY;BULL EL PRIMO;1,0;0,0
353;heist Crossroads;PENNY;BULL JESSIE;1,0;0,0
354;heist Crossroads;PENNY;BARLEY SPIKE;1,0;0,0
355;heist Crossroads;PENNY;DARRYL DYNAMIKE;1,0;0,0
356;heist Crossroads;COLT;;2,0;3,0
357;heist Crossroads;COLT;BARLEY;2,0;0,0
358;heist Crossroads;COLT;PENNY;2,0;0,0
359;heist Crossroads;COLT;BARLEY PENNY;2,0;0,0
360;heist Crossroads;NITA;;1,0;1,0
361;heist Crossroads;NITA;BULL;1,0;1,0
362;heist Crossroads;NITA;MR. P;1,0;1,0
363;heist Crossroads;NITA;BULL MR. P;1,0;1,0
364;heist Crossroads;EL PRIMO;;1,0;1,0
365;heist Crossroads;EL PRIMO;BIBI;1,0;0,0
366;heist Crossroads;EL PRIMO;RICO;1,0;0,0
367;heist Crossroads;EL PRIMO;BIBI RICO;1,0;0,0
368;gemGrab Crystal Arcade;CARL;;1,0;0,0
369;gemGrab Crystal Arcade;CARL;DARRYL;1,0;0,0
370;gemGrab Crystal Arcade;CARL;POCO;1,0;0,0
371;gemGrab Crystal Arcade;CARL;DARRYL POCO;1,0;0,0
372;brawlBall Pinball Dreams;MAX;;1,0;1,0
373;brawlBall Pinball Dreams;MAX;BROCK;1,0;1,0
374;brawlBall Pinball Dreams;MAX;MR. P;1,0;1,0
375;brawlBall Pinball Dreams;MAX;BROCK MR. P;1,0;1,0
376;brawlBall Center Field;EL PRIMO;;2,0;1,0
377;brawlBall Center Field;EL PRIMO;ROSA;2,0;0,0
378;brawlBall Center Field;EL PRIMO;POCO;1,0;0,0
379;brawlBall Center Field;EL PRIMO;JESSIE;1,0;0,0
380;brawlBall Center Field;EL PRIMO;POCO ROSA;1,0;0,0
381;brawlBall Center Field;EL PRIMO;JESSIE ROSA;1,0;0,0
382;brawlBall Center Field;JACKY;;1,0;1,0
383;brawlBall Center Field;JACKY;EL PRIMO;1,0;0,0
384;brawlBall Center Field;JACKY;EMZ;1,0;1,0
385;brawlBall Center Field;JACKY;EL PRIMO EMZ;1,0;0,0
386;hotZone High Score;EMZ;;7,0;2,0
387;hotZone High Score;EMZ;TICK;3,0;0,0
388;hotZone High Score;EMZ;EL PRIMO;2,0;0,0
389;hotZone High Score;EMZ;CROW;1,0;0,0
390;hotZone High Score;EMZ;8-BIT;1,0;1,0
391;hotZone High Score;EMZ;BULL;1,0;0,0
392;hotZone High Score;EMZ;PIPER;1,0;1,0
393;hotZone High Score;EMZ;BROCK;1,0;0,0
394;hotZone High Score;EMZ;BIBI;1,0;0,0
395;hotZone High Score;EMZ;PAM;1,0;1,0
396;hotZone High Score;EMZ;DYNAMIKE;1,0;0,0
397;hotZone High Score;EMZ;GALE;1,0;0,0
398;hotZone High Score;EMZ;CROW EL PRIMO;1,0;0,0
399;hotZone High Score;EMZ;8-BIT PAM;1,0;1,0
400;hotZone High Score;EMZ;BULL TICK;1,0;0,0
401;hotZone High Score;EMZ;PIPER TICK;1,0;0,0
402;hotZone High Score;EMZ;BROCK TICK;1,0;0,0
403;hotZone High Score;EMZ;BIBI DYNAMIKE;1,0;0,0
404;hotZone High Score;EMZ;EL PRIMO GALE;1,0;0,0
405;hotZone High Score;BO;;4,0;2,0
406;hotZone High Score;BO;POCO;4,0;1,0
407;hotZone High Score;BO;BROCK;3,0;1,0
408;hotZone High Score;BO;JESSIE;1,0;0,0
409;hotZone High Score;BO;BROCK POCO;3,0;1,0
410;hotZone High Score;BO;JESSIE POCO;1,0;0,0
411;hotZone High Score;FRANK;;1,0;2,0
412;hotZone High Score;FRANK;BROCK;1,0;0,0
413;hotZone High Score;FRANK;BULL;1,0;1,0
414;hotZone High Score;FRANK;BROCK BULL;1,0;0,0
415;hotZone High Score;TICK;;1,0;1,0
416;hotZone High Score;TICK;BULL;1,0;0,0
417;hotZone High Score;TICK;POCO;1,0;1,0
418;hotZone High Score;TICK;BULL POCO;1,0;0,0
419;hotZone High Score;JESSIE;;1,0;0,0
420;hotZone High Score;JESSIE;BARLEY;1,0;0,0
421;hotZone High Score;JESSIE;SHELLY;1,0;0,0
422;hotZone High Score;JESSIE;BARLEY SHELLY;1,0;0,0
423;bounty Snake Prairie;COLT;;1,0;2,0
424;bounty Snake Prairie;COLT;PENNY;1,0;0,0
425;bounty Snake Prairie;COLT;PIPER;1,0;1,0
426;bounty Snake Prairie;COLT;PENNY PIPER;1,0;0,0
427;brawlBall Pinhole Punt;MAX;;5,0;10,0
428;brawlBall Pinhole Punt;MAX;FRANK;5,0;8,0
429;brawlBall Pinhole Punt;MAX;GALE;5,0;6,0
430;brawlBall Pinhole Punt;MAX;FRANK GALE;5,0;6,0
431;brawlBall Pinhole Punt;DYNAMIKE;;2,0;0,0
432;brawlBall Pinhole Punt;DYNAMIKE;CARL;1,0;0,0
433;brawlBall Pinhole Punt;DYNAMIKE;BROCK;1,0;0,0
434;brawlBall Pinhole Punt;DYNAMIKE;TICK;1,0;0,0
435;brawlBall Pinhole Punt;DYNAMIKE;EL PRIMO;1,0;0,0
436;brawlBall Pinhole Punt;DYNAMIKE;CARL TICK;1,0;0,0
437;brawlBall Pinhole Punt;DYNAMIKE;BROCK EL PRIMO;1,0;0,0
438;brawlBall Pinhole Punt;EL PRIMO;;1,0;0,0
439;brawlBall Pinhole Punt;EL PRIMO;COLT;1,0;0,0
440;brawlBall Pinhole Punt;EL PRIMO;GENE;1,0;0,0
441;brawlBall Pinhole Punt;EL PRIMO;COLT GENE;1,0;0,0
442;gemGrab Deep Diner;EMZ;;5,0;1,0
443;gemGrab Deep Diner;EMZ;POCO;3,0;0,0
444;gemGrab Deep Diner;EMZ;ROSA;3,0;1,0
445;gemGrab Deep Diner;EMZ;PAM;2,0;1,0
446;gemGrab Deep Diner;EMZ;PENNY;2,0;0,0
447;gemGrab Deep Diner;EMZ;PAM ROSA;2,0;1,0
448;gemGrab Deep Diner;EMZ;PENNY POCO;2,0;0,0
449;gemGrab Deep Diner;EMZ;POCO ROSA;1,0;0,0
450;gemGrab Deep Diner;NITA;;1,0;1,0
451;gemGrab Deep Diner;NITA;JESSIE;1,0;0,0
452;gemGrab Deep Diner;NITA;POCO;1,0;0,0
453;gemGrab Deep Diner;NITA;JESSIE POCO;1,0;0,0
454;bounty Cobweb;JESSIE;;1,0;0,0
455;bounty Cobweb;JESSIE;PIPER;1,0;0,0
456;bounty Cobweb;JESSIE;ROSA;1,0;0,0
457;bounty Cobweb;JESSIE;PIPER ROSA;1,0;0,0
458;brawlBall Beach Ball;GENE;;1,0;1,0
459;brawlBall Beach Ball;GENE;JACKY;1,0;1,0
460;brawlBall Beach Ball;GENE;PENNY;1,0;1,0
461;brawlBall Beach Ball;GENE;JACKY PENNY;1,0;1,0
462;heist Bandit Cove;JESSIE;;5,0;6,0
463;heist Bandit Cove;JESSIE;NITA;4,0;4,0
464;heist Bandit Cove;JESSIE;PENNY;3,0;2,0
465;heist Bandit Cove;JESSIE;EL PRIMO;1,0;2,0
466;heist Bandit Cove;JESSIE;BARLEY;1,0;0,0
467;heist Bandit Cove;JESSIE;BROCK;1,0;0,0
468;heist Bandit Cove;JESSIE;NITA PENNY;3,0;2,0
469;heist Bandit Cove;JESSIE;EL PRIMO NITA;1,0;2,0
470;heist Bandit Cove;JESSIE;BARLEY BROCK;1,0;0,0
471;heist Bandit Cove;BULL;;1,0;2,0
472;heist Bandit Cove;BULL;BIBI;1,0;2,0
473;heist Bandit Cove;BULL;EL PRIMO;1,0;0,0
474;heist Bandit Cove;BULL;BIBI EL PRIMO;1,0;0,0
475;brawlBall Backyard Bowl;FRANK;;6,0;0,0
476;brawlBall Backyard Bowl;FRANK;BROCK;6,0;0,0
477;brawlBall Backyard Bowl;FRANK;PAM;6,0;0,0
478;brawlBall Backyard Bowl;FRANK;BROCK PAM;6,0;0,0
479;brawlBall Backyard Bowl;MR. P;;2,0;0,0
480;brawlBall Backyard Bowl;MR. P;BIBI;2,0;0,0
481;brawlBall Backyard Bowl;MR. P;MORTIS;1,0;0,0
482;brawlBall Backyard Bowl;MR. P;MAX;1,0;0,0
483;brawlBall Backyard Bowl;MR. P;BIBI MORTIS;1,0;0,0
484;brawlBall Backyard Bowl;MR. P;BIBI MAX;1,0;0,0
485;brawlBall Backyard Bowl;BIBI;;1,0;0,0
486;brawlBall Backyard Bowl;BIBI;COLT;1,0;0,0
487;brawlBall Backyard Bowl;BIBI;MAX;1,0;0,0
488;brawlBall Backyard Bowl;BIBI;COLT MAX;1,0;0,0
489;siege Some Assembly Required;POCO;;3,0;1,0
490;siege Some Assembly Required;POCO;BARLEY;2,0;1,0
491;siege Some Assembly Required;POCO;BO;2,0;1,0
492;siege Some Assembly Required;POCO;ROSA;1,0;0,0
493;siege Some Assembly Required;POCO;SHELLY;1,0;0,0
494;siege Some Assembly Required;POCO;BARLEY BO;2,0;1,0
495;siege Some Assembly Required;POCO;ROSA SHELLY;1,0;0,0
496;siege Some Assembly Required;TICK;;1,0;0,0
497;siege Some Assembly Required;TICK;EL PRIMO;1,0;0,0
498;siege Some Assembly Required;TICK;JACKY;1,0;0,0
499;siege Some Assembly Required;TICK;EL PRIMO JACKY;1,0;0,0
500;siege Some Assembly Required;DARRYL;;1,0;0,0
501;siege Some Assembly Required;DARRYL;BARLEY;1,0;0,0
502;siege Some Assembly Required;DARRYL;BO;1,0;0,0
503;siege Some Assembly Required;DARRYL;BARLEY BO;1,0;0,0
504;gemGrab Undermine;POCO;;3,0;1,0
505;gemGrab Undermine;POCO;BO;3,0;0,0
506;gemGrab Undermine;POCO;FRANK;3,0;1,0
507;gemGrab Undermine;POCO;BO FRANK;3,0;0,0
508;gemGrab Undermine;BEA;;1,0;2,0
509;gemGrab Undermine;BEA;BULL;1,0;0,0
510;gemGrab Undermine;BEA;GENE;1,0;0,0
511;gemGrab Undermine;BEA;BULL GENE;1,0;0,0
512;gemGrab Undermine;TICK;;1,0;0,0
513;gemGrab Undermine;TICK;BO;1,0;0,0
514;gemGrab Undermine;TICK;GALE;1,0;0,0
515;gemGrab Undermine;TICK;BO GALE;1,0;0,0
516;gemGrab Undermine;COLT;;1,0;1,0
517;gemGrab Undermine;COLT;BARLEY;1,0;0,0
518;gemGrab Undermine;COLT;BO;1,0;0,0
519;gemGrab Undermine;COLT;BARLEY BO;1,0;0,0
520;hotZone Golden Hacks;BO;;4,0;4,0
521;hotZone Golden Hacks;BO;POCO;3,0;1,0
522;hotZone Golden Hacks;BO;FRANK;1,0;0,0
523;hotZone Golden Hacks;BO;BROCK;1,0;0,0
524;hotZone Golden Hacks;BO;NITA;1,0;0,0
525;hotZone Golden Hacks;BO;LEON;1,0;0,0
526;hotZone Golden Hacks;BO;PAM;1,0;1,0
527;hotZone Golden Hacks;BO;FRANK POCO;1,0;0,0
528;hotZone Golden Hacks;BO;BROCK PAM;1,0;0,0
529;hotZone Golden Hacks;BO;NITA POCO;1,0;0,0
530;hotZone Golden Hacks;BO;LEON POCO;1,0;0,0
531;hotZone Golden Hacks;POCO;;3,0;2,0
532;hotZone Golden Hacks;POCO;BARLEY;3,0;1,0
533;hotZone Golden Hacks;POCO;BO;3,0;1,0
534;hotZone Golden Hacks;POCO;BARLEY BO;3,0;0,0
535;hotZone Golden Hacks;NITA;;1,0;1,0
536;hotZone Golden Hacks;NITA;FRANK;1,0;0,0
537;hotZone Golden Hacks;NITA;MORTIS;1,0;0,0
538;hotZone Golden Hacks;NITA;FRANK MORTIS;1,0;0,0
539;brawlBall Super Stadium;DARRYL;;1,0;1,0
540;brawlBall Super Stadium;DARRYL;CARL;1,0;1,0
541;brawlBall Super Stadium;DARRYL;COLT;1,0;0,0
542;brawlBall Super Stadium;DARRYL;CARL COLT;1,0;0,0
543;brawlBall Super Stadium;GENE;;1,0;1,0
544;brawlBall Super Stadium;GENE;BULL;1,0;1,0
545;brawlBall Super Stadium;GENE;JESSIE;1,0;0,0
546;brawlBall Super Stadium;GENE;BULL JESSIE;1,0;0,0
547;heist Hot Potato;BULL;;20,0;7,0
548;heist Hot Potato;BULL;PENNY;10,0;3,0
549;heist Hot Potato;BULL;NITA;6,0;0,0
550;heist Hot Potato;BULL;COLT;4,0;2,0
551;heist Hot Potato;BULL;DYNAMIKE;3,0;1,0
552;heist Hot Potato;BULL;LEON;3,0;0,0
553;heist Hot Potato;BULL;FRANK;3,0;0,0
554;heist Hot Potato;BULL;RICO;2,0;0,0
555;heist Hot Potato;BULL;EL PRIMO;1,0;0,0
556;heist Hot Potato;BULL;SHELLY;1,0;0,0
557;heist Hot Potato;BULL;ROSA;1,0;0,0
558;heist Hot Potato;BULL;8-BIT;1,0;0,0
559;heist Hot Potato;BULL;JESSIE;1,0;1,0
560;heist Hot Potato;BULL;GALE;1,0;0,0
561;heist Hot Potato;BULL;TICK;1,0;0,0
562;heist Hot Potato;BULL;SANDY;1,0;0,0
563;heist Hot Potato;BULL;SPIKE;1,0;2,0
564;heist Hot Potato;BULL;NITA PENNY;3,0;0,0
565;heist Hot Potato;BULL;COLT FRANK;3,0;0,0
566;heist Hot Potato;BULL;DYNAMIKE NITA;2,0;0,0
567;heist Hot Potato;BULL;LEON PENNY;2,0;0,0
568;heist Hot Potato;BULL;EL PRIMO LEON;1,0;0,0
569;heist Hot Potato;BULL;SHELLY TICK;1,0;0,0
570;heist Hot Potato;BULL;ROSA SANDY;1,0;0,0
571;heist Hot Potato;BULL;8-BIT PENNY;1,0;0,0
572;heist Hot Potato;BULL;DYNAMIKE PENNY;1,0;0,0
573;heist Hot Potato;BULL;JESSIE PENNY;1,0;0,0
574;heist Hot Potato;BULL;PENNY SPIKE;1,0;2,0
575;heist Hot Potato;BULL;PENNY RICO;1,0;0,0
576;heist Hot Potato;BULL;COLT RICO;1,0;0,0
577;heist Hot Potato;BULL;GALE NITA;1,0;0,0
578;heist Hot Potato;COLT;;2,0;2,0
579;heist Hot Potato;COLT;EL PRIMO;1,0;2,0
580;heist Hot Potato;COLT;BULL;1,0;0,0
581;heist Hot Potato;COLT;JESSIE;1,0;1,0
582;heist Hot Potato;COLT;NITA;1,0;0,0
583;heist Hot Potato;COLT;EL PRIMO JESSIE;1,0;1,0
584;heist Hot Potato;COLT;BULL NITA;1,0;0,0
585;heist Hot Potato;RICO;;2,0;1,0
586;heist Hot Potato;RICO;BROCK;1,0;0,0
587;heist Hot Potato;RICO;BULL;1,0;0,0
588;heist Hot Potato;RICO;MAX;1,0;0,0
589;heist Hot Potato;RICO;JESSIE;1,0;0,0
590;heist Hot Potato;RICO;BROCK MAX;1,0;0,0
591;heist Hot Potato;RICO;BULL JESSIE;1,0;0,0
592;heist Hot Potato;NITA;;1,0;3,0
593;heist Hot Potato;NITA;COLT;1,0;0,0
594;heist Hot Potato;NITA;JESSIE;1,0;1,0
595;heist Hot Potato;NITA;COLT JESSIE;1,0;0,0
596;gemGrab Hard Rock Mine;NITA;;1,0;1,0
597;gemGrab Hard Rock Mine;NITA;JESSIE;1,0;1,0
598;gemGrab Hard Rock Mine;NITA;ROSA;1,0;1,0
599;gemGrab Hard Rock Mine;NITA;JESSIE ROSA;1,0;1,0
600;gemGrab Hard Rock Mine;ROSA;;1,0;0,0
601;gemGrab Hard Rock Mine;ROSA;PIPER;1,0;0,0
602;gemGrab Hard Rock Mine;ROSA;POCO;1,0;0,0
603;gemGrab Hard Rock Mine;ROSA;PIPER POCO;1,0;0,0
604;hotZone Quarter Pounder;NITA;;1,0;2,0
605;hotZone Quarter Pounder;NITA;JESSIE;1,0;1,0
606;hotZone Quarter Pounder;NITA;SANDY;1,0;1,0
607;hotZone Quarter Pounder;NITA;JESSIE SANDY;1,0;0,0
608;bounty Heat Wave;PIPER;;4,0;1,0
609;bounty Heat Wave;PIPER;BO;2,0;1,0
610;bounty Heat Wave;PIPER;DARRYL;2,0;0,0
611;bounty Heat Wave;PIPER;BULL;1,0;0,0
612;bounty Heat Wave;PIPER;MAX;1,0;0,0
613;bounty Heat Wave;PIPER;TICK;1,0;1,0
614;bounty Heat Wave;PIPER;POCO;1,0;0,0
615;bounty Heat Wave;PIPER;BO DARRYL;1,0;0,0
616;bounty Heat Wave;PIPER;DARRYL MAX;1,0;0,0
617;bounty Heat Wave;PIPER;BO TICK;1,0;1,0
618;bounty Heat Wave;PIPER;BULL POCO;1,0;0,0
619;bounty Heat Wave;TICK;;1,0;0,0
620;bounty Heat Wave;TICK;COLT;1,0;0,0
621;bounty Heat Wave;TICK;DARRYL;1,0;0,0
622;bounty Heat Wave;TICK;COLT DARRYL;1,0;0,0
623;bounty Heat Wave;EMZ;;1,0;0,0
624;bounty Heat Wave;EMZ;BROCK;1,0;0,0
625;bounty Heat Wave;EMZ;COLT;1,0;0,0
626;bounty Heat Wave;EMZ;BROCK COLT;1,0;0,0
627;brawlBall Galaxy Arena;SHELLY;;4,0;1,0
628;brawlBall Galaxy Arena;SHELLY;BO;2,0;0,0
629;brawlBall Galaxy Arena;SHELLY;EMZ;2,0;0,0
630;brawlBall Galaxy Arena;SHELLY;FRANK;1,0;0,0
631;brawlBall Galaxy Arena;SHELLY;GENE;1,0;0,0
632;brawlBall Galaxy Arena;SHELLY;SPIKE;1,0;0,0
633;brawlBall Galaxy Arena;SHELLY;PIPER;1,0;0,0
634;brawlBall Galaxy Arena;SHELLY;BO EMZ;2,0;0,0
635;brawlBall Galaxy Arena;SHELLY;FRANK SPIKE;1,0;0,0
636;brawlBall Galaxy Arena;SHELLY;GENE PIPER;1,0;0,0
637;heist Traffic Jam;RICO;;21,0;12,0
638;heist Traffic Jam;RICO;BULL;8,0;2,0
639;heist Traffic Jam;RICO;NITA;7,0;1,0
640;heist Traffic Jam;RICO;COLT;3,0;4,0
641;heist Traffic Jam;RICO;BARLEY;3,0;0,0
642;heist Traffic Jam;RICO;EMZ;3,0;1,0
643;heist Traffic Jam;RICO;PENNY;3,0;0,0
644;heist Traffic Jam;RICO;8-BIT;2,0;2,0
645;heist Traffic Jam;RICO;JESSIE;2,0;3,0
646;heist Traffic Jam;RICO;BIBI;2,0;3,0
647;heist Traffic Jam;RICO;DARRYL;2,0;1,0
648;heist Traffic Jam;RICO;SPIKE;2,0;1,0
649;heist Traffic Jam;RICO;EL PRIMO;1,0;2,0
650;heist Traffic Jam;RICO;DYNAMIKE;1,0;2,0
651;heist Traffic Jam;RICO;PAM;1,0;0,0
652;heist Traffic Jam;RICO;POCO;1,0;0,0
653;heist Traffic Jam;RICO;ROSA;1,0;0,0
654;heist Traffic Jam;RICO;BULL SPIKE;2,0;1,0
655;heist Traffic Jam;RICO;BULL NITA;2,0;0,0
656;heist Traffic Jam;RICO;JESSIE NITA;2,0;0,0
657;heist Traffic Jam;RICO;EL PRIMO EMZ;1,0;1,0
658;heist Traffic Jam;RICO;BARLEY NITA;1,0;0,0
659;heist Traffic Jam;RICO;BULL ROSA;1,0;0,0
660;heist Traffic Jam;RICO;COLT POCO;1,0;0,0
661;heist Traffic Jam;RICO;8-BIT NITA;1,0;0,0
662;heist Traffic Jam;RICO;BARLEY BULL;1,0;0,0
663;heist Traffic Jam;RICO;COLT PENNY;1,0;0,0
664;heist Traffic Jam;RICO;BULL EMZ;1,0;0,0
665;heist Traffic Jam;RICO;8-BIT BIBI;1,0;1,0
666;heist Traffic Jam;RICO;NITA PENNY;1,0;0,0
667;heist Traffic Jam;RICO;DYNAMIKE PENNY;1,0;0,0
668;heist Traffic Jam;RICO;BARLEY DARRYL;1,0;0,0
669;heist Traffic Jam;RICO;COLT PAM;1,0;0,0
670;heist Traffic Jam;RICO;BIBI EMZ;1,0;0,0
671;heist Traffic Jam;RICO;BULL DARRYL;1,0;0,0
672;heist Traffic Jam;CARL;;7,0;5,0
673;heist Traffic Jam;CARL;RICO;4,0;2,0
674;heist Traffic Jam;CARL;BIBI;3,0;2,0
675;heist Traffic Jam;CARL;EMZ;1,0;0,0
676;heist Traffic Jam;CARL;BULL;1,0;0,0
677;heist Traffic Jam;CARL;BROCK;1,0;0,0
678;heist Traffic Jam;CARL;SHELLY;1,0;0,0
679;heist Traffic Jam;CARL;NITA;1,0;3,0
680;heist Traffic Jam;CARL;DYNAMIKE;1,0;0,0
681;heist Traffic Jam;CARL;COLT;1,0;0,0
682;heist Traffic Jam;CARL;BIBI RICO;3,0;1,0
683;heist Traffic Jam;CARL;RICO SHELLY;1,0;0,0
684;heist Traffic Jam;CARL;EMZ NITA;1,0;0,0
685;heist Traffic Jam;CARL;BULL DYNAMIKE;1,0;0,0
686;heist Traffic Jam;CARL;BROCK COLT;1,0;0,0
687;heist Traffic Jam;BULL;;6,0;6,0
688;heist Traffic Jam;BULL;COLT;6,0;5,0
689;heist Traffic Jam;BULL;SPIKE;6,0;5,0
690;heist Traffic Jam;BULL;COLT SPIKE;6,0;5,0
691;heist Traffic Jam;JESSIE;;5,0;5,0
692;heist Traffic Jam;JESSIE;DARRYL;3,0;1,0
693;heist Traffic Jam;JESSIE;RICO;3,0;3,0
694;heist Traffic Jam;JESSIE;CROW;1,0;0,0
695;heist Traffic Jam;JESSIE;COLT;1,0;0,0
696;heist Traffic Jam;JESSIE;SHELLY;1,0;0,0
697;heist Traffic Jam;JESSIE;SPIKE;1,0;1,0
698;heist Traffic Jam;JESSIE;RICO SHELLY;1,0;0,0
699;heist Traffic Jam;JESSIE;CROW RICO;1,0;0,0
700;heist Traffic Jam;JESSIE;COLT DARRYL;1,0;0,0
701;heist Traffic Jam;JESSIE;DARRYL RICO;1,0;0,0
702;heist Traffic Jam;JESSIE;DARRYL SPIKE;1,0;0,0
703;heist Traffic Jam;DYNAMIKE;;3,0;3,0
704;heist Traffic Jam;DYNAMIKE;BULL;1,0;0,0
705;heist Traffic Jam;DYNAMIKE;BO;1,0;0,0
706;heist Traffic Jam;DYNAMIKE;DARRYL;1,0;2,0
707;heist Traffic Jam;DYNAMIKE;SHELLY;1,0;1,0
708;heist Traffic Jam;DYNAMIKE;COLT;1,0;0,0
709;heist Traffic Jam;DYNAMIKE;EL PRIMO;1,0;2,0
710;heist Traffic Jam;DYNAMIKE;BULL SHELLY;1,0;0,0
711;heist Traffic Jam;DYNAMIKE;BO COLT;1,0;0,0
712;heist Traffic Jam;DYNAMIKE;DARRYL EL PRIMO;1,0;2,0
713;heist Traffic Jam;DARRYL;;1,0;1,0
714;heist Traffic Jam;DARRYL;BARLEY;1,0;1,0
715;heist Traffic Jam;DARRYL;RICO;1,0;1,0
716;heist Traffic Jam;DARRYL;BARLEY RICO;1,0;1,0
717;siege Factory Rush;EMZ;;1,0;2,0
718;siege Factory Rush;EMZ;MORTIS;1,0;0,0
719;siege Factory Rush;EMZ;PENNY;1,0;1,0
720;siege Factory Rush;EMZ;MORTIS PENNY;1,0;0,0
721;siege Factory Rush;POCO;;1,0;3,0
722;siege Factory Rush;POCO;PENNY;1,0;1,0
723;siege Factory Rush;POCO;TICK;1,0;1,0
724;siege Factory Rush;POCO;PENNY TICK;1,0;1,0
725;siege Factory Rush;DARRYL;;1,0;1,0
726;siege Factory Rush;DARRYL;FRANK;1,0;0,0
727;siege Factory Rush;DARRYL;PIPER;1,0;1,0
728;siege Factory Rush;DARRYL;FRANK PIPER;1,0;0,0
729;heist Sandy Gems;CARL;;3,0;0,0
730;heist Sandy Gems;CARL;BULL;3,0;0,0
731;heist Sandy Gems;CARL;POCO;3,0;0,0
732;heist Sandy Gems;CARL;BULL POCO;3,0;0,0
733;heist Sandy Gems;COLT;;2,0;0,0
734;heist Sandy Gems;COLT;DYNAMIKE;1,0;0,0
735;heist Sandy Gems;COLT;BULL;1,0;0,0
736;heist Sandy Gems;COLT;TARA;1,0;0,0
737;heist Sandy Gems;COLT;RICO;1,0;0,0
738;heist Sandy Gems;COLT;DYNAMIKE TARA;1,0;0,0
739;heist Sandy Gems;COLT;BULL RICO;1,0;0,0
740;gemGrab Escape Velocity;FRANK;;3,0;0,0
741;gemGrab Escape Velocity;FRANK;JESSIE;3,0;0,0
742;gemGrab Escape Velocity;FRANK;NITA;3,0;0,0
743;gemGrab Escape Velocity;FRANK;JESSIE NITA;3,0;0,0
744;gemGrab Escape Velocity;JESSIE;;2,0;0,0
745;gemGrab Escape Velocity;JESSIE;EL PRIMO;1,0;0,0
746;gemGrab Escape Velocity;JESSIE;COLT;1,0;0,0
747;gemGrab Escape Velocity;JESSIE;RICO;1,0;0,0
748;gemGrab Escape Velocity;JESSIE;PENNY;1,0;0,0
749;gemGrab Escape Velocity;JESSIE;EL PRIMO RICO;1,0;0,0
750;gemGrab Escape Velocity;JESSIE;COLT PENNY;1,0;0,0
751;brawlBall Penalty Kick;CARL;;3,0;0,0
752;brawlBall Penalty Kick;CARL;BARLEY;3,0;0,0
753;brawlBall Penalty Kick;CARL;POCO;3,0;0,0
754;brawlBall Penalty Kick;CARL;BARLEY POCO;3,0;0,0
755;bounty Layer Cake;TICK;;2,0;0,0
756;bounty Layer Cake;TICK;BIBI;1,0;0,0
757;bounty Layer Cake;TICK;BROCK;1,0;0,0
758;bounty Layer Cake;TICK;EMZ;1,0;0,0
759;bounty Layer Cake;TICK;ROSA;1,0;0,0
760;bounty Layer Cake;TICK;BIBI EMZ;1,0;0,0
761;bounty Layer Cake;TICK;BROCK ROSA;1,0;0,0
762;siege Junk Park;TICK;;4,0;0,0
763;siege Junk Park;TICK;JESSIE;4,0;0,0
764;siege Junk Park;TICK;ROSA;4,0;0,0
765;siege Junk Park;TICK;JESSIE ROSA;4,0;0,0
766;hotZone Controller Chaos;NITA;;4,0;0,0
767;hotZone Controller Chaos;NITA;JESSIE;3,0;0,0
768;hotZone Controller Chaos;NITA;PAM;3,0;0,0
769;hotZone Controller Chaos;NITA;POCO;1,0;0,0
770;hotZone Controller Chaos;NITA;ROSA;1,0;0,0
771;hotZone Controller Chaos;NITA;JESSIE PAM;3,0;0,0
772;hotZone Controller Chaos;NITA;POCO ROSA;1,0;0,0
773;hotZone Controller Chaos;EMZ;;1,0;0,0
774;hotZone Controller Chaos;EMZ;BROCK;1,0;0,0
775;hotZone Controller Chaos;EMZ;ROSA;1,0;0,0
776;hotZone Controller Chaos;EMZ;BROCK ROSA;1,0;0,0
777;bounty Canal Grande;POCO;;6,0;0,0
778;bounty Canal Grande;POCO;BROCK;6,0;0,0
779;bounty Canal Grande;POCO;ROSA;6,0;0,0
780;bounty Canal Grande;POCO;BROCK ROSA;6,0;0,0
781;bounty Canal Grande;ROSA;;5,0;2,0
782;bounty Canal Grande;ROSA;JESSIE;5,0;1,0
783;bounty Canal Grande;ROSA;PIPER;5,0;1,0
784;bounty Canal Grande;ROSA;JESSIE PIPER;5,0;1,0
785;bounty Canal Grande;EMZ;;1,0;0,0
786;bounty Canal Grande;EMZ;BROCK;1,0;0,0
787;bounty Canal Grande;EMZ;ROSA;1,0;0,0
788;bounty Canal Grande;EMZ;BROCK ROSA;1,0;0,0
789;bounty Deeper Danger;TICK;;3,0;0,0
790;bounty Deeper Danger;TICK;EMZ;1,0;0,0
791;bounty Deeper Danger;TICK;BARLEY;1,0;0,0
792;bounty Deeper Danger;TICK;EL PRIMO;1,0;0,0
793;bounty Deeper Danger;TICK;PIPER;1,0;0,0
794;bounty Deeper Danger;TICK;POCO;1,0;0,0
795;bounty Deeper Danger;TICK;JESSIE;1,0;0,0
796;bounty Deeper Danger;TICK;EMZ PIPER;1,0;0,0
797;bounty Deeper Danger;TICK;BARLEY POCO;1,0;0,0
798;bounty Deeper Danger;TICK;EL PRIMO JESSIE;1,0;0,0
799;bounty Deeper Danger;EMZ;;2,0;0,0
800;bounty Deeper Danger;EMZ;BARLEY;2,0;0,0
801;bounty Deeper Danger;EMZ;JESSIE;1,0;0,0
802;bounty Deeper Danger;EMZ;BULL;1,0;0,0
803;bounty Deeper Danger;EMZ;BARLEY JESSIE;1,0;0,0
804;bounty Deeper Danger;EMZ;BARLEY BULL;1,0;0,0
805;gemGrab Spare Space;EMZ;;1,0;0,0
806;gemGrab Spare Space;EMZ;BARLEY;1,0;0,0
807;gemGrab Spare Space;EMZ;BROCK;1,0;0,0
808;gemGrab Spare Space;EMZ;BARLEY BROCK;1,0;0,0
809;gemGrab Spare Space;BO;;1,0;0,0
810;gemGrab Spare Space;BO;BROCK;1,0;0,0
811;gemGrab Spare Space;BO;ROSA;1,0;0,0
812;gemGrab Spare Space;BO;BROCK ROSA;1,0;0,0
813;gemGrab Spare Space;NITA;;1,0;1,0
814;gemGrab Spare Space;NITA;BROCK;1,0;0,0
815;gemGrab Spare Space;NITA;ROSA;1,0;0,0
816;gemGrab Spare Space;NITA;BROCK ROSA;1,0;0,0
817;siege Nuts & Bolts;PENNY;;5,0;1,0
818;siege Nuts & Bolts;PENNY;JESSIE;5,0;1,0
819;siege Nuts & Bolts;PENNY;NITA;5,0;1,0
820;siege Nuts & Bolts;PENNY;JESSIE NITA;5,0;1,0
821;siege Nuts & Bolts;FRANK;;5,0;0,0
822;siege Nuts & Bolts;FRANK;BROCK;3,0;0,0
823;siege Nuts & Bolts;FRANK;RICO;3,0;0,0
824;siege Nuts & Bolts;FRANK;BARLEY;2,0;0,0
825;siege Nuts & Bolts;FRANK;PAM;2,0;0,0
826;siege Nuts & Bolts;FRANK;BROCK RICO;3,0;0,0
827;siege Nuts & Bolts;FRANK;BARLEY PAM;2,0;0,0
828;gemGrab Spring Trap;EMZ;;0,0;2,0
829;gemGrab Spring Trap;EMZ;ROSA;0,0;1,0
830;gemGrab Spring Trap;EMZ;BULL;0,0;1,0
831;gemGrab Spring Trap;EMZ;TARA;0,0;1,0
832;gemGrab Spring Trap;EMZ;JACKY;0,0;1,0
833;gemGrab Spring Trap;EMZ;ROSA TARA;0,0;1,0
834;gemGrab Spring Trap;EMZ;BULL JACKY;0,0;1,0
835;gemGrab Spring Trap;TICK;EL PRIMO;0,0;1,0
836;gemGrab Spring Trap;TICK;BO JESSIE;0,0;1,0
837;gemGrab Spring Trap;TICK;BO EL PRIMO;0,0;1,0
838;gemGrab Spring Trap;PAM;;0,0;1,0
839;gemGrab Spring Trap;PAM;BROCK;0,0;1,0
840;gemGrab Spring Trap;PAM;EL PRIMO;0,0;1,0
841;gemGrab Spring Trap;PAM;BROCK EL PRIMO;0,0;1,0
842;gemGrab Spring Trap;TARA;;0,0;1,0
843;gemGrab Spring Trap;TARA;BIBI;0,0;1,0
844;gemGrab Spring Trap;TARA;GENE;0,0;1,0
845;gemGrab Spring Trap;TARA;BIBI GENE;0,0;1,0
846;gemGrab Spring Trap;ROSA;SPIKE;0,0;1,0
847;gemGrab Spring Trap;ROSA;TARA;0,0;1,0
848;gemGrab Spring Trap;ROSA;SPIKE TARA;0,0;1,0
849;hotZone High Score;BO;BEA;0,0;1,0
850;hotZone High Score;BO;SANDY;0,0;1,0
851;hotZone High Score;BO;BEA SANDY;0,0;1,0
852;hotZone High Score;FRANK;BARLEY;0,0;1,0
853;hotZone High Score;FRANK;SHELLY;0,0;1,0
854;hotZone High Score;FRANK;JESSIE;0,0;1,0
855;hotZone High Score;FRANK;BARLEY SHELLY;0,0;1,0
856;hotZone High Score;FRANK;BULL JESSIE;0,0;1,0
857;hotZone High Score;EMZ;BO;0,0;1,0
858;hotZone High Score;EMZ;BO PIPER;0,0;1,0
859;hotZone High Score;TICK;BROCK;0,0;1,0
860;hotZone High Score;TICK;BROCK POCO;0,0;1,0
861;hotZone High Score;8-BIT;;0,0;1,0
862;hotZone High Score;8-BIT;JESSIE;0,0;1,0
863;hotZone High Score;8-BIT;POCO;0,0;1,0
864;hotZone High Score;8-BIT;JESSIE POCO;0,0;1,0
865;heist Sandy Gems;EL PRIMO;;0,0;3,0
866;heist Sandy Gems;EL PRIMO;BULL;0,0;2,0
867;heist Sandy Gems;EL PRIMO;BIBI;0,0;1,0
868;heist Sandy Gems;EL PRIMO;RICO;0,0;1,0
869;heist Sandy Gems;EL PRIMO;NITA;0,0;1,0
870;heist Sandy Gems;EL PRIMO;DARRYL;0,0;1,0
871;heist Sandy Gems;EL PRIMO;BULL RICO;0,0;1,0
872;heist Sandy Gems;EL PRIMO;BIBI NITA;0,0;1,0
873;heist Sandy Gems;EL PRIMO;BULL DARRYL;0,0;1,0
874;heist Sandy Gems;RICO;;0,0;2,0
875;heist Sandy Gems;RICO;BULL;0,0;2,0
876;heist Sandy Gems;RICO;JACKY;0,0;1,0
877;heist Sandy Gems;RICO;PENNY;0,0;1,0
878;heist Sandy Gems;RICO;BULL JACKY;0,0;1,0
879;heist Sandy Gems;RICO;BULL PENNY;0,0;1,0
880;hotZone Temple of Boom;FRANK;EL PRIMO;0,0;1,0
881;hotZone Temple of Boom;FRANK;TARA;0,0;1,0
882;hotZone Temple of Boom;FRANK;NITA;0,0;1,0
883;hotZone Temple of Boom;FRANK;MR. P;0,0;1,0
884;hotZone Temple of Boom;FRANK;EL PRIMO TARA;0,0;1,0
885;hotZone Temple of Boom;FRANK;JESSIE NITA;0,0;1,0
886;hotZone Temple of Boom;FRANK;BO MR. P;0,0;1,0
887;hotZone Temple of Boom;NITA;POCO;0,0;1,0
888;hotZone Temple of Boom;NITA;PAM POCO;0,0;1,0
889;hotZone Temple of Boom;PAM;CROW;0,0;1,0
890;hotZone Temple of Boom;PAM;MR. P;0,0;1,0
891;hotZone Temple of Boom;PAM;BIBI ROSA;0,0;1,0
892;hotZone Temple of Boom;PAM;CROW MR. P;0,0;1,0
893;hotZone Temple of Boom;BO;SPROUT;0,0;1,0
894;hotZone Temple of Boom;BO;DARRYL SPROUT;0,0;1,0
895;hotZone Temple of Boom;COLT;EL PRIMO;0,0;1,0
896;hotZone Temple of Boom;COLT;EMZ;0,0;1,0
897;hotZone Temple of Boom;COLT;EL PRIMO EMZ;0,0;1,0
898;brawlBall Warped Arena;NITA;FRANK;0,0;1,0
899;brawlBall Warped Arena;NITA;JESSIE;0,0;1,0
900;brawlBall Warped Arena;NITA;JACKY;0,0;1,0
901;brawlBall Warped Arena;NITA;POCO;0,0;1,0
902;brawlBall Warped Arena;NITA;FRANK JACKY;0,0;1,0
903;brawlBall Warped Arena;NITA;JESSIE POCO;0,0;1,0
904;brawlBall Warped Arena;COLT;;0,0;2,0
905;brawlBall Warped Arena;COLT;EMZ;0,0;2,0
906;brawlBall Warped Arena;COLT;DYNAMIKE;0,0;1,0
907;brawlBall Warped Arena;COLT;BROCK;0,0;1,0
908;brawlBall Warped Arena;COLT;DYNAMIKE EMZ;0,0;1,0
909;brawlBall Warped Arena;COLT;BROCK EMZ;0,0;1,0
910;brawlBall Warped Arena;PAM;BULL;0,0;1,0
911;brawlBall Warped Arena;PAM;MORTIS;0,0;1,0
912;brawlBall Warped Arena;PAM;BULL MORTIS;0,0;1,0
913;brawlBall Warped Arena;EMZ;;0,0;1,0
914;brawlBall Warped Arena;EMZ;BARLEY;0,0;1,0
915;brawlBall Warped Arena;EMZ;TICK;0,0;1,0
916;brawlBall Warped Arena;EMZ;BARLEY TICK;0,0;1,0
917;hotZone Breakout Brawl;NITA;BEA;0,0;1,0
918;hotZone Breakout Brawl;NITA;FRANK;0,0;1,0
919;hotZone Breakout Brawl;NITA;MORTIS;0,0;1,0
920;hotZone Breakout Brawl;NITA;JESSIE;0,0;1,0
921;hotZone Breakout Brawl;NITA;CROW;0,0;1,0
922;hotZone Breakout Brawl;NITA;BEA MORTIS;0,0;1,0
923;hotZone Breakout Brawl;NITA;FRANK PAM;0,0;1,0
924;hotZone Breakout Brawl;NITA;EMZ JESSIE;0,0;1,0
925;hotZone Breakout Brawl;NITA;BO CROW;0,0;1,0
926;hotZone Breakout Brawl;NITA;DARRYL EMZ;0,0;1,0
927;hotZone Breakout Brawl;POCO;GALE;0,0;1,0
928;hotZone Breakout Brawl;POCO;TICK;0,0;1,0
929;hotZone Breakout Brawl;POCO;JACKY;0,0;1,0
930;hotZone Breakout Brawl;POCO;SANDY;0,0;1,0
931;hotZone Breakout Brawl;POCO;SHELLY;0,0;1,0
932;hotZone Breakout Brawl;POCO;ROSA TICK;0,0;1,0
933;hotZone Breakout Brawl;POCO;BARLEY JACKY;0,0;1,0
934;hotZone Breakout Brawl;POCO;GALE SANDY;0,0;1,0
935;hotZone Breakout Brawl;POCO;ROSA SHELLY;0,0;1,0
936;hotZone Breakout Brawl;FRANK;POCO;0,0;1,0
937;hotZone Breakout Brawl;FRANK;COLT POCO;0,0;1,0
938;hotZone Breakout Brawl;EMZ;;0,0;1,0
939;hotZone Breakout Brawl;EMZ;BO;0,0;1,0
940;hotZone Breakout Brawl;EMZ;JESSIE;0,0;1,0
941;hotZone Breakout Brawl;EMZ;BO JESSIE;0,0;1,0
942;brawlBall Shoulder Bash;RICO;MR. P;0,0;1,0
943;brawlBall Shoulder Bash;RICO;DYNAMIKE;0,0;1,0
944;brawlBall Shoulder Bash;RICO;POCO;0,0;1,0
945;brawlBall Shoulder Bash;RICO;SPROUT;0,0;1,0
946;brawlBall Shoulder Bash;RICO;MR. P POCO;0,0;1,0
947;brawlBall Shoulder Bash;RICO;DYNAMIKE SPROUT;0,0;1,0
948;brawlBall Shoulder Bash;8-BIT;FRANK;0,0;1,0
949;brawlBall Shoulder Bash;8-BIT;BARLEY FRANK;0,0;1,0
950;heist Tornado Ring;BULL;BROCK;0,0;1,0
951;heist Tornado Ring;BULL;BO;0,0;1,0
952;heist Tornado Ring;BULL;DYNAMIKE;0,0;1,0
953;heist Tornado Ring;BULL;FRANK;0,0;1,0
954;heist Tornado Ring;BULL;BROCK DYNAMIKE;0,0;1,0
955;heist Tornado Ring;BULL;COLT FRANK;0,0;1,0
956;heist Tornado Ring;BULL;BO COLT;0,0;1,0
957;heist Tornado Ring;EMZ;BULL;0,0;1,0
958;heist Tornado Ring;EMZ;BULL JESSIE;0,0;1,0
959;brawlBall Well Cut;FRANK;;0,0;1,0
960;brawlBall Well Cut;FRANK;BEA;0,0;1,0
961;brawlBall Well Cut;FRANK;BIBI;0,0;1,0
962;brawlBall Well Cut;FRANK;BEA BIBI;0,0;1,0
963;hotZone Controller Chaos;BULL;;0,0;2,0
964;hotZone Controller Chaos;BULL;TARA;0,0;1,0
965;hotZone Controller Chaos;BULL;CROW;0,0;1,0
966;hotZone Controller Chaos;BULL;TICK;0,0;1,0
967;hotZone Controller Chaos;BULL;EMZ;0,0;1,0
968;hotZone Controller Chaos;BULL;TARA TICK;0,0;1,0
969;hotZone Controller Chaos;BULL;CROW EMZ;0,0;1,0
970;siege Fenced In;EMZ;DYNAMIKE;0,0;2,0
971;siege Fenced In;EMZ;COLT;0,0;1,0
972;siege Fenced In;EMZ;GALE;0,0;1,0
973;siege Fenced In;EMZ;PIPER;0,0;1,0
974;siege Fenced In;EMZ;DYNAMIKE PIPER;0,0;1,0
975;siege Fenced In;EMZ;DYNAMIKE FRANK;0,0;1,0
976;siege Fenced In;EMZ;COLT SPROUT;0,0;1,0
977;siege Fenced In;EMZ;GALE SPROUT;0,0;1,0
978;siege Fenced In;CARL;;0,0;2,0
979;siege Fenced In;CARL;GALE;0,0;1,0
980;siege Fenced In;CARL;DARRYL;0,0;1,0
981;siege Fenced In;CARL;ROSA;0,0;1,0
982;siege Fenced In;CARL;FRANK;0,0;1,0
983;siege Fenced In;CARL;GALE ROSA;0,0;1,0
984;siege Fenced In;CARL;DARRYL FRANK;0,0;1,0
985;siege Fenced In;JESSIE;;0,0;1,0
986;siege Fenced In;JESSIE;BROCK;0,0;1,0
987;siege Fenced In;JESSIE;FRANK;0,0;1,0
988;siege Fenced In;JESSIE;BROCK FRANK;0,0;1,0
989;brawlBall Triple Dribble;NITA;;0,0;1,0
990;brawlBall Triple Dribble;NITA;EL PRIMO;0,0;1,0
991;brawlBall Triple Dribble;NITA;ROSA;0,0;1,0
992;brawlBall Triple Dribble;NITA;EL PRIMO ROSA;0,0;1,0
993;brawlBall Triple Dribble;LEON;;0,0;1,0
994;brawlBall Triple Dribble;LEON;EL PRIMO;0,0;1,0
995;brawlBall Triple Dribble;LEON;NITA;0,0;1,0
996;brawlBall Triple Dribble;LEON;EL PRIMO NITA;0,0;1,0
997;gemGrab Double Swoosh;MAX;;0,0;1,0
998;gemGrab Double Swoosh;MAX;PAM;0,0;1,0
999;gemGrab Double Swoosh;MAX;PIPER;0,0;1,0
1000;gemGrab Double Swoosh;MAX;PAM PIPER;0,0;1,0
1001;gemGrab Double Swoosh;LEON;NITA SHELLY;0,0;1,0
1002;gemGrab Bouncing Diner;BEA;BO;0,0;1,0
1003;gemGrab Bouncing Diner;BEA;NITA;0,0;1,0
1004;gemGrab Bouncing Diner;BEA;BARLEY;0,0;1,0
1005;gemGrab Bouncing Diner;BEA;CARL;0,0;1,0
1006;gemGrab Bouncing Diner;BEA;RICO;0,0;1,0
1007;gemGrab Bouncing Diner;BEA;PENNY;0,0;1,0
1008;gemGrab Bouncing Diner;BEA;DARRYL;0,0;1,0
1009;gemGrab Bouncing Diner;BEA;SPIKE;0,0;1,0
1010;gemGrab Bouncing Diner;BEA;BO RICO;0,0;1,0
1011;gemGrab Bouncing Diner;BEA;NITA PENNY;0,0;1,0
1012;gemGrab Bouncing Diner;BEA;BARLEY DARRYL;0,0;1,0
1013;gemGrab Bouncing Diner;BEA;CARL SPIKE;0,0;1,0
1014;gemGrab Bouncing Diner;LEON;COLT;0,0;1,0
1015;gemGrab Bouncing Diner;LEON;JESSIE;0,0;1,0
1016;gemGrab Bouncing Diner;LEON;COLT JESSIE;0,0;1,0
1017;gemGrab Bouncing Diner;POCO;;0,0;1,0
1018;gemGrab Bouncing Diner;POCO;BO;0,0;1,0
1019;gemGrab Bouncing Diner;POCO;ROSA;0,0;1,0
1020;gemGrab Bouncing Diner;POCO;BO ROSA;0,0;1,0
1021;hotZone Street Brawler 2;JESSIE;GENE;0,0;1,0
1022;hotZone Street Brawler 2;JESSIE;8-BIT;0,0;1,0
1023;hotZone Street Brawler 2;JESSIE;GENE PAM;0,0;1,0
1024;hotZone Street Brawler 2;JESSIE;8-BIT PAM;0,0;1,0
1025;hotZone Street Brawler 2;BULL;;0,0;1,0
1026;hotZone Street Brawler 2;BULL;JESSIE;0,0;1,0
1027;hotZone Street Brawler 2;BULL;SPROUT;0,0;1,0
1028;hotZone Street Brawler 2;BULL;JESSIE SPROUT;0,0;1,0
1029;bounty Canal Grande;TICK;;0,0;4,0
1030;bounty Canal Grande;TICK;ROSA;0,0;3,0
1031;bounty Canal Grande;TICK;NITA;0,0;2,0
1032;bounty Canal Grande;TICK;PENNY;0,0;1,0
1033;bounty Canal Grande;TICK;BROCK;0,0;1,0
1034;bounty Canal Grande;TICK;PIPER;0,0;1,0
1035;bounty Canal Grande;TICK;NITA ROSA;0,0;1,0
1036;bounty Canal Grande;TICK;PENNY ROSA;0,0;1,0
1037;bounty Canal Grande;TICK;BROCK ROSA;0,0;1,0
1038;bounty Canal Grande;TICK;NITA PIPER;0,0;1,0
1039;bounty Canal Grande;ROSA;POCO;0,0;1,0
1040;bounty Canal Grande;ROSA;RICO;0,0;1,0
1041;bounty Canal Grande;ROSA;POCO RICO;0,0;1,0
1042;bounty Canal Grande;BEA;;0,0;1,0
1043;bounty Canal Grande;BEA;PIPER;0,0;1,0
1044;bounty Canal Grande;BEA;ROSA;0,0;1,0
1045;bounty Canal Grande;BEA;PIPER ROSA;0,0;1,0
1046;bounty Canal Grande;BROCK;;0,0;1,0
1047;bounty Canal Grande;BROCK;ROSA;0,0;1,0
1048;bounty Canal Grande;BROCK;TICK;0,0;1,0
1049;bounty Canal Grande;BROCK;ROSA TICK;0,0;1,0
1050;heist Crossroads;BULL;MAX;0,0;1,0
1051;heist Crossroads;BULL;EMZ;0,0;1,0
1052;heist Crossroads;BULL;PENNY;0,0;1,0
1053;heist Crossroads;BULL;SHELLY;0,0;1,0
1054;heist Crossroads;BULL;CROW DARRYL;0,0;1,0
1055;heist Crossroads;BULL;COLT PENNY;0,0;1,0
1056;heist Crossroads;BULL;EL PRIMO JESSIE;0,0;1,0
1057;heist Crossroads;BULL;MAX POCO;0,0;1,0
1058;heist Crossroads;BULL;POCO SHELLY;0,0;1,0
1059;heist Crossroads;BULL;EMZ POCO;0,0;1,0
1060;heist Crossroads;JESSIE;MORTIS;0,0;1,0
1061;heist Crossroads;JESSIE;DARRYL MORTIS;0,0;1,0
1062;heist Crossroads;JESSIE;DYNAMIKE NITA;0,0;1,0
1063;heist Crossroads;JESSIE;BROCK NITA;0,0;1,0
1064;heist Crossroads;COLT;EL PRIMO;0,0;2,0
1065;heist Crossroads;COLT;POCO;0,0;1,0
1066;heist Crossroads;COLT;BROCK;0,0;1,0
1067;heist Crossroads;COLT;RICO;0,0;1,0
1068;heist Crossroads;COLT;JESSIE;0,0;1,0
1069;heist Crossroads;COLT;POCO RICO;0,0;1,0
1070;heist Crossroads;COLT;BROCK EL PRIMO;0,0;1,0
1071;heist Crossroads;COLT;EL PRIMO JESSIE;0,0;1,0
1072;heist Crossroads;DYNAMIKE;POCO;0,0;1,0
1073;heist Crossroads;DYNAMIKE;BULL POCO;0,0;1,0
1074;heist Crossroads;RICO;;0,0;2,0
1075;heist Crossroads;RICO;JESSIE;0,0;1,0
1076;heist Crossroads;RICO;BARLEY;0,0;1,0
1077;heist Crossroads;RICO;NITA;0,0;1,0
1078;heist Crossroads;RICO;EL PRIMO;0,0;1,0
1079;heist Crossroads;RICO;JESSIE NITA;0,0;1,0
1080;heist Crossroads;RICO;BARLEY EL PRIMO;0,0;1,0
1081;heist Crossroads;PENNY;NITA;0,0;2,0
1082;heist Crossroads;PENNY;COLT;0,0;1,0
1083;heist Crossroads;PENNY;TICK;0,0;1,0
1084;heist Crossroads;PENNY;NITA TICK;0,0;1,0
1085;heist Crossroads;PENNY;COLT NITA;0,0;1,0
1086;heist Crossroads;EL PRIMO;COLT;0,0;1,0
1087;heist Crossroads;EL PRIMO;MR. P;0,0;1,0
1088;heist Crossroads;EL PRIMO;COLT MR. P;0,0;1,0
1089;brawlBall Pinball Dreams;FRANK;;0,0;1,0
1090;brawlBall Pinball Dreams;FRANK;BROCK;0,0;1,0
1091;brawlBall Pinball Dreams;FRANK;PENNY;0,0;1,0
1092;brawlBall Pinball Dreams;FRANK;BROCK PENNY;0,0;1,0
1093;brawlBall Center Field;DARRYL;;0,0;2,0
1094;brawlBall Center Field;DARRYL;POCO;0,0;2,0
1095;brawlBall Center Field;DARRYL;PENNY;0,0;1,0
1096;brawlBall Center Field;DARRYL;BROCK;0,0;1,0
1097;brawlBall Center Field;DARRYL;PENNY POCO;0,0;1,0
1098;brawlBall Center Field;DARRYL;BROCK POCO;0,0;1,0
1099;brawlBall Center Field;JACKY;COLT;0,0;1,0
1100;brawlBall Center Field;JACKY;COLT EMZ;0,0;1,0
1101;brawlBall Center Field;BO;;0,0;1,0
1102;brawlBall Center Field;BO;BIBI;0,0;1,0
1103;brawlBall Center Field;BO;TARA;0,0;1,0
1104;brawlBall Center Field;BO;BIBI TARA;0,0;1,0
1105;brawlBall Center Field;GENE;;0,0;1,0
1106;brawlBall Center Field;GENE;EL PRIMO;0,0;1,0
1107;brawlBall Center Field;GENE;RICO;0,0;1,0
1108;brawlBall Center Field;GENE;EL PRIMO RICO;0,0;1,0
1109;brawlBall Center Field;MAX;;0,0;1,0
1110;brawlBall Center Field;MAX;DARRYL;0,0;1,0
1111;brawlBall Center Field;MAX;FRANK;0,0;1,0
1112;brawlBall Center Field;MAX;DARRYL FRANK;0,0;1,0
1113;brawlBall Center Field;EL PRIMO;BIBI;0,0;1,0
1114;brawlBall Center Field;EL PRIMO;EMZ;0,0;1,0
1115;brawlBall Center Field;EL PRIMO;BIBI EMZ;0,0;1,0
1116;brawlBall Pinhole Punt;MAX;8-BIT;0,0;1,0
1117;brawlBall Pinhole Punt;MAX;EMZ;0,0;1,0
1118;brawlBall Pinhole Punt;MAX;BO;0,0;1,0
1119;brawlBall Pinhole Punt;MAX;MORTIS;0,0;1,0
1120;brawlBall Pinhole Punt;MAX;POCO;0,0;1,0
1121;brawlBall Pinhole Punt;MAX;NITA;0,0;1,0
1122;brawlBall Pinhole Punt;MAX;8-BIT MORTIS;0,0;1,0
1123;brawlBall Pinhole Punt;MAX;FRANK POCO;0,0;1,0
1124;brawlBall Pinhole Punt;MAX;EMZ FRANK;0,0;1,0
1125;brawlBall Pinhole Punt;MAX;BO NITA;0,0;1,0
1126;brawlBall Pinhole Punt;FRANK;;0,0;1,0
1127;brawlBall Pinhole Punt;FRANK;DARRYL;0,0;1,0
1128;brawlBall Pinhole Punt;FRANK;PENNY;0,0;1,0
1129;brawlBall Pinhole Punt;FRANK;DARRYL PENNY;0,0;1,0
1130;brawlBall Pinhole Punt;LEON;;0,0;1,0
1131;brawlBall Pinhole Punt;LEON;COLT;0,0;1,0
1132;brawlBall Pinhole Punt;LEON;PAM;0,0;1,0
1133;brawlBall Pinhole Punt;LEON;COLT PAM;0,0;1,0
1134;brawlBall Pinhole Punt;ROSA;;0,0;1,0
1135;brawlBall Pinhole Punt;ROSA;PAM;0,0;1,0
1136;brawlBall Pinhole Punt;ROSA;TARA;0,0;1,0
1137;brawlBall Pinhole Punt;ROSA;PAM TARA;0,0;1,0
1138;bounty Snake Prairie;TARA;;0,0;4,0
1139;bounty Snake Prairie;TARA;JESSIE;0,0;2,0
1140;bounty Snake Prairie;TARA;BO;0,0;2,0
1141;bounty Snake Prairie;TARA;ROSA;0,0;2,0
1142;bounty Snake Prairie;TARA;NITA;0,0;1,0
1143;bounty Snake Prairie;TARA;PIPER;0,0;1,0
1144;bounty Snake Prairie;TARA;JESSIE NITA;0,0;1,0
1145;bounty Snake Prairie;TARA;BO ROSA;0,0;1,0
1146;bounty Snake Prairie;TARA;JESSIE ROSA;0,0;1,0
1147;bounty Snake Prairie;TARA;BO PIPER;0,0;1,0
1148;bounty Snake Prairie;COLT;BO;0,0;1,0
1149;bounty Snake Prairie;COLT;SHELLY;0,0;1,0
1150;bounty Snake Prairie;COLT;GENE;0,0;1,0
1151;bounty Snake Prairie;COLT;PIPER SHELLY;0,0;1,0
1152;bounty Snake Prairie;COLT;BO GENE;0,0;1,0
1153;bounty Snake Prairie;JESSIE;;0,0;2,0
1154;bounty Snake Prairie;JESSIE;BO;0,0;2,0
1155;bounty Snake Prairie;JESSIE;BROCK;0,0;2,0
1156;bounty Snake Prairie;JESSIE;BO BROCK;0,0;2,0
1157;gemGrab Cell Division;BO;;0,0;1,0
1158;gemGrab Cell Division;BO;POCO;0,0;1,0
1159;gemGrab Cell Division;BO;RICO;0,0;1,0
1160;gemGrab Cell Division;BO;POCO RICO;0,0;1,0
1161;gemGrab Deep Diner;NITA;PAM;0,0;1,0
1162;gemGrab Deep Diner;NITA;SPROUT;0,0;1,0
1163;gemGrab Deep Diner;NITA;PAM SPROUT;0,0;1,0
1164;heist Traffic Jam;RICO;BROCK;0,0;1,0
1165;heist Traffic Jam;RICO;JACKY;0,0;1,0
1166;heist Traffic Jam;RICO;COLT DYNAMIKE;0,0;1,0
1167;heist Traffic Jam;RICO;BIBI COLT;0,0;1,0
1168;heist Traffic Jam;RICO;8-BIT JESSIE;0,0;1,0
1169;heist Traffic Jam;RICO;DARRYL JACKY;0,0;1,0
1170;heist Traffic Jam;RICO;BROCK BULL;0,0;1,0
1171;heist Traffic Jam;RICO;COLT NITA;0,0;1,0
1172;heist Traffic Jam;RICO;COLT EL PRIMO;0,0;1,0
1173;heist Traffic Jam;RICO;BIBI JESSIE;0,0;1,0
1174;heist Traffic Jam;RICO;DYNAMIKE JESSIE;0,0;1,0
1175;heist Traffic Jam;BULL;MR. P;0,0;1,0
1176;heist Traffic Jam;BULL;NITA;0,0;1,0
1177;heist Traffic Jam;BULL;MR. P NITA;0,0;1,0
1178;heist Traffic Jam;CARL;JESSIE;0,0;1,0
1179;heist Traffic Jam;CARL;BARLEY;0,0;1,0
1180;heist Traffic Jam;CARL;SPIKE;0,0;1,0
1181;heist Traffic Jam;CARL;JESSIE NITA;0,0;1,0
1182;heist Traffic Jam;CARL;NITA RICO;0,0;1,0
1183;heist Traffic Jam;CARL;BARLEY NITA;0,0;1,0
1184;heist Traffic Jam;CARL;BIBI SPIKE;0,0;1,0
1185;heist Traffic Jam;JESSIE;NITA;0,0;2,0
1186;heist Traffic Jam;JESSIE;BULL;0,0;1,0
1187;heist Traffic Jam;JESSIE;EL PRIMO;0,0;1,0
1188;heist Traffic Jam;JESSIE;EMZ;0,0;1,0
1189;heist Traffic Jam;JESSIE;NITA RICO;0,0;2,0
1190;heist Traffic Jam;JESSIE;BULL DARRYL;0,0;1,0
1191;heist Traffic Jam;JESSIE;RICO SPIKE;0,0;1,0
1192;heist Traffic Jam;JESSIE;EL PRIMO EMZ;0,0;1,0
1193;heist Traffic Jam;DYNAMIKE;PAM;0,0;1,0
1194;heist Traffic Jam;DYNAMIKE;PAM SHELLY;0,0;1,0
1195;heist Traffic Jam;NITA;;0,0;1,0
1196;heist Traffic Jam;NITA;BULL;0,0;1,0
1197;heist Traffic Jam;NITA;POCO;0,0;1,0
1198;heist Traffic Jam;NITA;BULL POCO;0,0;1,0
1199;bounty Cobweb;POCO;;0,0;1,0
1200;bounty Cobweb;POCO;BROCK;0,0;1,0
1201;bounty Cobweb;POCO;ROSA;0,0;1,0
1202;bounty Cobweb;POCO;BROCK ROSA;0,0;1,0
1203;bounty Cobweb;EMZ;;0,0;1,0
1204;bounty Cobweb;EMZ;BROCK;0,0;1,0
1205;bounty Cobweb;EMZ;ROSA;0,0;1,0
1206;bounty Cobweb;EMZ;BROCK ROSA;0,0;1,0
1207;brawlBall Beach Ball;LEON;;0,0;2,0
1208;brawlBall Beach Ball;LEON;CROW;0,0;1,0
1209;brawlBall Beach Ball;LEON;NITA;0,0;1,0
1210;brawlBall Beach Ball;LEON;FRANK;0,0;1,0
1211;brawlBall Beach Ball;LEON;SHELLY;0,0;1,0
1212;brawlBall Beach Ball;LEON;CROW FRANK;0,0;1,0
1213;brawlBall Beach Ball;LEON;NITA SHELLY;0,0;1,0
1214;brawlBall Beach Ball;BO;;0,0;1,0
1215;brawlBall Beach Ball;BO;JESSIE;0,0;1,0
1216;brawlBall Beach Ball;BO;ROSA;0,0;1,0
1217;brawlBall Beach Ball;BO;JESSIE ROSA;0,0;1,0
1218;brawlBall Beach Ball;JESSIE;;0,0;1,0
1219;brawlBall Beach Ball;JESSIE;POCO;0,0;1,0
1220;brawlBall Beach Ball;JESSIE;SHELLY;0,0;1,0
1221;brawlBall Beach Ball;JESSIE;POCO SHELLY;0,0;1,0
1222;brawlBall Beach Ball;MAX;;0,0;1,0
1223;brawlBall Beach Ball;MAX;JACKY;0,0;1,0
1224;brawlBall Beach Ball;MAX;PENNY;0,0;1,0
1225;brawlBall Beach Ball;MAX;JACKY PENNY;0,0;1,0
1226;brawlBall Beach Ball;BEA;;0,0;1,0
1227;brawlBall Beach Ball;BEA;EMZ;0,0;1,0
1228;brawlBall Beach Ball;BEA;SPIKE;0,0;1,0
1229;brawlBall Beach Ball;BEA;EMZ SPIKE;0,0;1,0
1230;brawlBall Beach Ball;DYNAMIKE;;0,0;1,0
1231;brawlBall Beach Ball;DYNAMIKE;GENE;0,0;1,0
1232;brawlBall Beach Ball;DYNAMIKE;JESSIE;0,0;1,0
1233;brawlBall Beach Ball;DYNAMIKE;GENE JESSIE;0,0;1,0
1234;brawlBall Beach Ball;BIBI;;0,0;1,0
1235;brawlBall Beach Ball;BIBI;EL PRIMO;0,0;1,0
1236;brawlBall Beach Ball;BIBI;EMZ;0,0;1,0
1237;brawlBall Beach Ball;BIBI;EL PRIMO EMZ;0,0;1,0
1238;brawlBall Beach Ball;EMZ;;0,0;1,0
1239;brawlBall Beach Ball;EMZ;EL PRIMO;0,0;1,0
1240;brawlBall Beach Ball;EMZ;TARA;0,0;1,0
1241;brawlBall Beach Ball;EMZ;EL PRIMO TARA;0,0;1,0
1242;siege Olive Branch;TICK;;0,0;2,0
1243;siege Olive Branch;TICK;DARRYL;0,0;1,0
1244;siege Olive Branch;TICK;JESSIE;0,0;1,0
1245;siege Olive Branch;TICK;MR. P;0,0;1,0
1246;siege Olive Branch;TICK;ROSA;0,0;1,0
1247;siege Olive Branch;TICK;DARRYL MR. P;0,0;1,0
1248;siege Olive Branch;TICK;JESSIE ROSA;0,0;1,0
1249;heist Bandit Cove;JESSIE;8-BIT;0,0;1,0
1250;heist Bandit Cove;JESSIE;BO;0,0;1,0
1251;heist Bandit Cove;JESSIE;BIBI;0,0;1,0
1252;heist Bandit Cove;JESSIE;SHELLY;0,0;1,0
1253;heist Bandit Cove;JESSIE;8-BIT BIBI;0,0;1,0
1254;heist Bandit Cove;JESSIE;BO SHELLY;0,0;1,0
1255;heist Bandit Cove;BULL;NITA;0,0;1,0
1256;heist Bandit Cove;BULL;EMZ;0,0;1,0
1257;heist Bandit Cove;BULL;BIBI NITA;0,0;1,0
1258;heist Bandit Cove;BULL;BIBI EMZ;0,0;1,0
1259;gemGrab Undermine;ROSA;;0,0;2,0
1260;gemGrab Undermine;ROSA;JESSIE;0,0;1,0
1261;gemGrab Undermine;ROSA;BARLEY;0,0;1,0
1262;gemGrab Undermine;ROSA;RICO;0,0;1,0
1263;gemGrab Undermine;ROSA;BO;0,0;1,0
1264;gemGrab Undermine;ROSA;JESSIE RICO;0,0;1,0
1265;gemGrab Undermine;ROSA;BARLEY BO;0,0;1,0
1266;gemGrab Undermine;BEA;BROCK;0,0;1,0
1267;gemGrab Undermine;BEA;RICO;0,0;1,0
1268;gemGrab Undermine;BEA;PENNY;0,0;1,0
1269;gemGrab Undermine;BEA;ROSA;0,0;1,0
1270;gemGrab Undermine;BEA;BROCK PENNY;0,0;1,0
1271;gemGrab Undermine;BEA;RICO ROSA;0,0;1,0
1272;gemGrab Undermine;POCO;SPIKE;0,0;1,0
1273;gemGrab Undermine;POCO;FRANK SPIKE;0,0;1,0
1274;gemGrab Undermine;MAX;;0,0;1,0
1275;gemGrab Undermine;MAX;EMZ;0,0;1,0
1276;gemGrab Undermine;MAX;PAM;0,0;1,0
1277;gemGrab Undermine;MAX;EMZ PAM;0,0;1,0
1278;gemGrab Undermine;GENE;;0,0;1,0
1279;gemGrab Undermine;GENE;PAM;0,0;1,0
1280;gemGrab Undermine;GENE;POCO;0,0;1,0
1281;gemGrab Undermine;GENE;PAM POCO;0,0;1,0
1282;gemGrab Undermine;PAM;;0,0;1,0
1283;gemGrab Undermine;PAM;CARL;0,0;1,0
1284;gemGrab Undermine;PAM;EMZ;0,0;1,0
1285;gemGrab Undermine;PAM;CARL EMZ;0,0;1,0
1286;gemGrab Undermine;COLT;EMZ;0,0;1,0
1287;gemGrab Undermine;COLT;RICO;0,0;1,0
1288;gemGrab Undermine;COLT;EMZ RICO;0,0;1,0
1289;hotZone Golden Hacks;BO;TICK;0,0;2,0
1290;hotZone Golden Hacks;BO;EMZ;0,0;1,0
1291;hotZone Golden Hacks;BO;8-BIT;0,0;1,0
1292;hotZone Golden Hacks;BO;DARRYL;0,0;1,0
1293;hotZone Golden Hacks;BO;BARLEY;0,0;1,0
1294;hotZone Golden Hacks;BO;EMZ TICK;0,0;1,0
1295;hotZone Golden Hacks;BO;8-BIT BARLEY;0,0;1,0
1296;hotZone Golden Hacks;BO;POCO TICK;0,0;1,0
1297;hotZone Golden Hacks;BO;DARRYL PAM;0,0;1,0
1298;hotZone Golden Hacks;POCO;GALE;0,0;1,0
1299;hotZone Golden Hacks;POCO;TICK;0,0;1,0
1300;hotZone Golden Hacks;POCO;BARLEY GALE;0,0;1,0
1301;hotZone Golden Hacks;POCO;BO TICK;0,0;1,0
1302;hotZone Golden Hacks;NITA;DARRYL;0,0;1,0
1303;hotZone Golden Hacks;NITA;PAM;0,0;1,0
1304;hotZone Golden Hacks;NITA;DARRYL PAM;0,0;1,0
1305;hotZone Golden Hacks;SHELLY;;0,0;1,0
1306;hotZone Golden Hacks;SHELLY;BIBI;0,0;1,0
1307;hotZone Golden Hacks;SHELLY;PAM;0,0;1,0
1308;hotZone Golden Hacks;SHELLY;BIBI PAM;0,0;1,0
1309;hotZone Golden Hacks;ROSA;;0,0;1,0
1310;hotZone Golden Hacks;ROSA;MR. P;0,0;1,0
1311;hotZone Golden Hacks;ROSA;NITA;0,0;1,0
1312;hotZone Golden Hacks;ROSA;MR. P NITA;0,0;1,0
1313;gemGrab Minecart Madness;NITA;;0,0;1,0
1314;gemGrab Minecart Madness;NITA;JESSIE;0,0;1,0
1315;gemGrab Minecart Madness;NITA;SHELLY;0,0;1,0
1316;gemGrab Minecart Madness;NITA;JESSIE SHELLY;0,0;1,0
1317;gemGrab Minecart Madness;EMZ;;0,0;1,0
1318;gemGrab Minecart Madness;EMZ;DYNAMIKE;0,0;1,0
1319;gemGrab Minecart Madness;EMZ;PENNY;0,0;1,0
1320;gemGrab Minecart Madness;EMZ;DYNAMIKE PENNY;0,0;1,0
1321;brawlBall Super Stadium;MAX;;0,0;1,0
1322;brawlBall Super Stadium;MAX;BROCK;0,0;1,0
1323;brawlBall Super Stadium;MAX;EL PRIMO;0,0;1,0
1324;brawlBall Super Stadium;MAX;BROCK EL PRIMO;0,0;1,0
1325;brawlBall Super Stadium;DARRYL;MORTIS;0,0;1,0
1326;brawlBall Super Stadium;DARRYL;CARL MORTIS;0,0;1,0
1327;brawlBall Super Stadium;GENE;FRANK;0,0;1,0
1328;brawlBall Super Stadium;GENE;BULL FRANK;0,0;1,0
1329;heist Hot Potato;BULL;EMZ;0,0;2,0
1330;heist Hot Potato;BULL;MAX;0,0;2,0
1331;heist Hot Potato;BULL;CARL;0,0;1,0
1332;heist Hot Potato;BULL;COLT DYNAMIKE;0,0;1,0
1333;heist Hot Potato;BULL;CARL MAX;0,0;1,0
1334;heist Hot Potato;BULL;COLT EMZ;0,0;1,0
1335;heist Hot Potato;BULL;EMZ JESSIE;0,0;1,0
1336;heist Hot Potato;BULL;MAX PENNY;0,0;1,0
1337;heist Hot Potato;NITA;BO;0,0;1,0
1338;heist Hot Potato;NITA;DYNAMIKE;0,0;1,0
1339;heist Hot Potato;NITA;BULL;0,0;1,0
1340;heist Hot Potato;NITA;PENNY;0,0;1,0
1341;heist Hot Potato;NITA;MAX;0,0;1,0
1342;heist Hot Potato;NITA;BO PENNY;0,0;1,0
1343;heist Hot Potato;NITA;DYNAMIKE MAX;0,0;1,0
1344;heist Hot Potato;NITA;BULL JESSIE;0,0;1,0
1345;heist Hot Potato;COLT;CARL;0,0;1,0
1346;heist Hot Potato;COLT;CARL EL PRIMO;0,0;1,0
1347;heist Hot Potato;RICO;PIPER;0,0;1,0
1348;heist Hot Potato;RICO;ROSA;0,0;1,0
1349;heist Hot Potato;RICO;PIPER ROSA;0,0;1,0
1350;bounty Layer Cake;BROCK;;0,0;2,0
1351;bounty Layer Cake;BROCK;MR. P;0,0;1,0
1352;bounty Layer Cake;BROCK;JESSIE;0,0;1,0
1353;bounty Layer Cake;BROCK;PENNY;0,0;1,0
1354;bounty Layer Cake;BROCK;TICK;0,0;1,0
1355;bounty Layer Cake;BROCK;MR. P PENNY;0,0;1,0
1356;bounty Layer Cake;BROCK;JESSIE TICK;0,0;1,0
1357;bounty Layer Cake;ROSA;;0,0;1,0
1358;bounty Layer Cake;ROSA;BROCK;0,0;1,0
1359;bounty Layer Cake;ROSA;POCO;0,0;1,0
1360;bounty Layer Cake;ROSA;BROCK POCO;0,0;1,0
1361;siege Factory Rush;POCO;ROSA;0,0;2,0
1362;siege Factory Rush;POCO;EMZ;0,0;1,0
1363;siege Factory Rush;POCO;PIPER;0,0;1,0
1364;siege Factory Rush;POCO;EMZ ROSA;0,0;1,0
1365;siege Factory Rush;POCO;PIPER ROSA;0,0;1,0
1366;siege Factory Rush;EMZ;BROCK;0,0;1,0
1367;siege Factory Rush;EMZ;8-BIT;0,0;1,0
1368;siege Factory Rush;EMZ;GALE;0,0;1,0
1369;siege Factory Rush;EMZ;BROCK PENNY;0,0;1,0
1370;siege Factory Rush;EMZ;8-BIT GALE;0,0;1,0
1371;siege Factory Rush;TICK;;0,0;1,0
1372;siege Factory Rush;TICK;CROW;0,0;1,0
1373;siege Factory Rush;TICK;PAM;0,0;1,0
1374;siege Factory Rush;TICK;CROW PAM;0,0;1,0
1375;siege Factory Rush;DARRYL;PAM;0,0;1,0
1376;siege Factory Rush;DARRYL;PAM PIPER;0,0;1,0
1377;siege Factory Rush;PAM;;0,0;1,0
1378;siege Factory Rush;PAM;PENNY;0,0;1,0
1379;siege Factory Rush;PAM;TICK;0,0;1,0
1380;siege Factory Rush;PAM;PENNY TICK;0,0;1,0
1381;siege Factory Rush;GENE;;0,0;1,0
1382;siege Factory Rush;GENE;PENNY;0,0;1,0
1383;siege Factory Rush;GENE;RICO;0,0;1,0
1384;siege Factory Rush;GENE;PENNY RICO;0,0;1,0
1385;hotZone Quarter Pounder;NITA;BEA;0,0;1,0
1386;hotZone Quarter Pounder;NITA;RICO;0,0;1,0
1387;hotZone Quarter Pounder;NITA;BEA JESSIE;0,0;1,0
1388;hotZone Quarter Pounder;NITA;RICO SANDY;0,0;1,0
1389;brawlBall Galaxy Arena;SHELLY;EL PRIMO;0,0;1,0
1390;brawlBall Galaxy Arena;SHELLY;MORTIS;0,0;1,0
1391;brawlBall Galaxy Arena;SHELLY;EL PRIMO MORTIS;0,0;1,0
1392;siege Junk Park;COLT;;0,0;1,0
1393;siege Junk Park;COLT;BARLEY;0,0;1,0
1394;siege Junk Park;COLT;ROSA;0,0;1,0
1395;siege Junk Park;COLT;BARLEY ROSA;0,0;1,0
1396;brawlBall Post Haste;BO;;0,0;1,0
1397;brawlBall Post Haste;BO;COLT;0,0;1,0
1398;brawlBall Post Haste;BO;EL PRIMO;0,0;1,0
1399;brawlBall Post Haste;BO;COLT EL PRIMO;0,0;1,0
1400;gemGrab Spare Space;RICO;;0,0;1,0
1401;gemGrab Spare Space;RICO;DYNAMIKE;0,0;1,0
1402;gemGrab Spare Space;RICO;JACKY;0,0;1,0
1403;gemGrab Spare Space;RICO;DYNAMIKE JACKY;0,0;1,0
1404;gemGrab Spare Space;NITA;BO;0,0;1,0
1405;gemGrab Spare Space;NITA;DYNAMIKE;0,0;1,0
1406;gemGrab Spare Space;NITA;BO DYNAMIKE;0,0;1,0
