;brawler;mode;others_brawlers;victory;defeat
0;gemGrab;JESSIE;;13,0;1,0
1;gemGrab;JESSIE;SHELLY;7,0;0,0
2;gemGrab;JESSIE;BO;5,0;0,0
3;gemGrab;JESSIE;NITA;5,0;1,0
4;gemGrab;JESSIE;GENE;2,0;0,0
5;gemGrab;JESSIE;PIPER;1,0;0,0
6;gemGrab;JESSIE;POCO;1,0;0,0
7;gemGrab;JESSIE;LEON;1,0;0,0
8;gemGrab;JESSIE;COLT;1,0;0,0
9;gemGrab;JESSIE;ROSA;1,0;1,0
10;gemGrab;JESSIE;TICK;1,0;0,0
11;gemGrab;JESSIE;RICO;1,0;0,0
12;gemGrab;JESSIE;BO SHELLY;5,0;0,0
13;gemGrab;JESSIE;GENE NITA;2,0;0,0
14;gemGrab;JESSIE;NITA ROSA;1,0;1,0
15;gemGrab;JESSIE;PIPER TICK;1,0;0,0
16;gemGrab;JESSIE;POCO SHELLY;1,0;0,0
17;gemGrab;JESSIE;LEON NITA;1,0;0,0
18;gemGrab;JESSIE;COLT SHELLY;1,0;0,0
19;gemGrab;JESSIE;NITA RICO;1,0;0,0
20;gemGrab;POCO;;8,0;0,0
21;gemGrab;POCO;EMZ;3,0;0,0
22;gemGrab;POCO;PENNY;3,0;0,0
23;gemGrab;POCO;BO;2,0;0,0
24;gemGrab;POCO;RICO;2,0;0,0
25;gemGrab;POCO;JESSIE;1,0;0,0
26;gemGrab;POCO;BULL;1,0;0,0
27;gemGrab;POCO;EL PRIMO;1,0;0,0
28;gemGrab;POCO;ROSA;1,0;0,0
29;gemGrab;POCO;CROW;1,0;0,0
30;gemGrab;POCO;NITA;1,0;0,0
31;gemGrab;POCO;EMZ PENNY;2,0;0,0
32;gemGrab;POCO;EMZ ROSA;1,0;0,0
33;gemGrab;POCO;JESSIE RICO;1,0;0,0
34;gemGrab;POCO;BO RICO;1,0;0,0
35;gemGrab;POCO;BULL CROW;1,0;0,0
36;gemGrab;POCO;EL PRIMO PENNY;1,0;0,0
37;gemGrab;POCO;BO NITA;1,0;0,0
38;gemGrab;BARLEY;;6,0;2,0
39;gemGrab;BARLEY;JESSIE;5,0;1,0
40;gemGrab;BARLEY;BULL;2,0;0,0
41;gemGrab;BARLEY;COLT;2,0;0,0
42;gemGrab;BARLEY;DYNAMIKE;1,0;0,0
43;gemGrab;BARLEY;8-BIT;1,0;0,0
44;gemGrab;BARLEY;RICO;1,0;0,0
45;gemGrab;BARLEY;BULL JESSIE;2,0;0,0
46;gemGrab;BARLEY;DYNAMIKE JESSIE;1,0;0,0
47;gemGrab;BARLEY;JESSIE RICO;1,0;0,0
48;gemGrab;BARLEY;COLT JESSIE;1,0;0,0
49;gemGrab;BARLEY;8-BIT COLT;1,0;0,0
50;gemGrab;BROCK;;6,0;2,0
51;gemGrab;BROCK;ROSA;3,0;0,0
52;gemGrab;BROCK;JESSIE;2,0;0,0
53;gemGrab;BROCK;JACKY;1,0;0,0
54;gemGrab;BROCK;BARLEY;1,0;1,0
55;gemGrab;BROCK;BO;1,0;0,0
56;gemGrab;BROCK;NITA;1,0;0,0
57;gemGrab;BROCK;COLT;1,0;1,0
58;gemGrab;BROCK;CARL;1,0;0,0
59;gemGrab;BROCK;EMZ;1,0;0,0
60;gemGrab;BROCK;JACKY ROSA;1,0;0,0
61;gemGrab;BROCK;BARLEY EMZ;1,0;0,0
62;gemGrab;BROCK;BO ROSA;1,0;0,0
63;gemGrab;BROCK;NITA ROSA;1,0;0,0
64;gemGrab;BROCK;COLT JESSIE;1,0;0,0
65;gemGrab;BROCK;CARL JESSIE;1,0;0,0
66;gemGrab;PAM;;5,0;0,0
67;gemGrab;PAM;ROSA;5,0;0,0
68;gemGrab;PAM;NITA;2,0;0,0
69;gemGrab;PAM;EMZ;2,0;0,0
70;gemGrab;PAM;BEA;1,0;0,0
71;gemGrab;PAM;NITA ROSA;2,0;0,0
72;gemGrab;PAM;EMZ ROSA;2,0;0,0
73;gemGrab;PAM;BEA ROSA;1,0;0,0
74;gemGrab;ROSA;;4,0;0,0
75;gemGrab;ROSA;BROCK;2,0;0,0
76;gemGrab;ROSA;PENNY;2,0;0,0
77;gemGrab;ROSA;JESSIE;1,0;0,0
78;gemGrab;ROSA;BARLEY;1,0;0,0
79;gemGrab;ROSA;DYNAMIKE;1,0;0,0
80;gemGrab;ROSA;JACKY;1,0;0,0
81;gemGrab;ROSA;BROCK PENNY;1,0;0,0
82;gemGrab;ROSA;JESSIE PENNY;1,0;0,0
83;gemGrab;ROSA;BROCK DYNAMIKE;1,0;0,0
84;gemGrab;ROSA;BARLEY JACKY;1,0;0,0
85;gemGrab;BO;;4,0;0,0
86;gemGrab;BO;BROCK;1,0;0,0
87;gemGrab;BO;NITA;1,0;0,0
88;gemGrab;BO;BEA;1,0;0,0
89;gemGrab;BO;MR. P;1,0;0,0
90;gemGrab;BO;BULL;1,0;0,0
91;gemGrab;BO;SHELLY;1,0;0,0
92;gemGrab;BO;SPROUT;1,0;0,0
93;gemGrab;BO;PENNY;1,0;0,0
94;gemGrab;BO;BROCK BULL;1,0;0,0
95;gemGrab;BO;NITA SHELLY;1,0;0,0
96;gemGrab;BO;BEA SPROUT;1,0;0,0
97;gemGrab;BO;MR. P PENNY;1,0;0,0
98;gemGrab;EMZ;;3,0;3,0
99;gemGrab;EMZ;NITA;2,0;0,0
100;gemGrab;EMZ;BARLEY;1,0;1,0
101;gemGrab;EMZ;CROW;1,0;0,0
102;gemGrab;EMZ;POCO;1,0;0,0
103;gemGrab;EMZ;SHELLY;1,0;3,0
104;gemGrab;EMZ;BARLEY NITA;1,0;0,0
105;gemGrab;EMZ;NITA POCO;1,0;0,0
106;gemGrab;EMZ;CROW SHELLY;1,0;0,0
107;gemGrab;DYNAMIKE;;3,0;2,0
108;gemGrab;DYNAMIKE;BULL;1,0;0,0
109;gemGrab;DYNAMIKE;BEA;1,0;0,0
110;gemGrab;DYNAMIKE;EMZ;1,0;0,0
111;gemGrab;DYNAMIKE;PAM;1,0;0,0
112;gemGrab;DYNAMIKE;SANDY;1,0;0,0
113;gemGrab;DYNAMIKE;GALE;1,0;0,0
114;gemGrab;DYNAMIKE;BULL PAM;1,0;0,0
115;gemGrab;DYNAMIKE;BEA SANDY;1,0;0,0
116;gemGrab;DYNAMIKE;EMZ GALE;1,0;0,0
117;gemGrab;FRANK;;2,0;0,0
118;gemGrab;FRANK;RICO;2,0;0,0
119;gemGrab;FRANK;GENE;1,0;0,0
120;gemGrab;FRANK;BO;1,0;0,0
121;gemGrab;FRANK;GENE RICO;1,0;0,0
122;gemGrab;FRANK;BO RICO;1,0;0,0
123;gemGrab;PIPER;;1,0;0,0
124;gemGrab;PIPER;POCO;1,0;0,0
125;gemGrab;PIPER;ROSA;1,0;0,0
126;gemGrab;PIPER;POCO ROSA;1,0;0,0
127;gemGrab;SHELLY;;1,0;0,0
128;gemGrab;SHELLY;RICO;1,0;0,0
129;gemGrab;SHELLY;TICK;1,0;0,0
130;gemGrab;SHELLY;RICO TICK;1,0;0,0
131;brawlBall;SHELLY;;28,0;4,0
132;brawlBall;SHELLY;ROSA;7,0;0,0
133;brawlBall;SHELLY;GENE;6,0;1,0
134;brawlBall;SHELLY;EL PRIMO;6,0;0,0
135;brawlBall;SHELLY;JESSIE;6,0;1,0
136;brawlBall;SHELLY;BO;4,0;0,0
137;brawlBall;SHELLY;COLT;4,0;2,0
138;brawlBall;SHELLY;RICO;3,0;0,0
139;brawlBall;SHELLY;POCO;2,0;0,0
140;brawlBall;SHELLY;DARRYL;2,0;1,0
141;brawlBall;SHELLY;BEA;2,0;1,0
142;brawlBall;SHELLY;JACKY;2,0;0,0
143;brawlBall;SHELLY;BULL;2,0;1,0
144;brawlBall;SHELLY;TICK;2,0;0,0
145;brawlBall;SHELLY;PAM;1,0;0,0
146;brawlBall;SHELLY;TARA;1,0;0,0
147;brawlBall;SHELLY;FRANK;1,0;1,0
148;brawlBall;SHELLY;BIBI;1,0;0,0
149;brawlBall;SHELLY;NITA;1,0;0,0
150;brawlBall;SHELLY;SPROUT;1,0;0,0
151;brawlBall;SHELLY;EMZ;1,0;0,0
152;brawlBall;SHELLY;SANDY;1,0;0,0
153;brawlBall;SHELLY;BO JESSIE;4,0;0,0
154;brawlBall;SHELLY;GENE ROSA;4,0;0,0
155;brawlBall;SHELLY;RICO TICK;2,0;0,0
156;brawlBall;SHELLY;COLT EL PRIMO;2,0;0,0
157;brawlBall;SHELLY;BEA GENE;2,0;1,0
158;brawlBall;SHELLY;BIBI BULL;1,0;0,0
159;brawlBall;SHELLY;COLT ROSA;1,0;0,0
160;brawlBall;SHELLY;DARRYL EL PRIMO;1,0;0,0
161;brawlBall;SHELLY;JESSIE ROSA;1,0;0,0
162;brawlBall;SHELLY;EMZ JESSIE;1,0;0,0
163;brawlBall;SHELLY;EL PRIMO JACKY;1,0;0,0
164;brawlBall;SHELLY;COLT TARA;1,0;0,0
165;brawlBall;SHELLY;POCO RICO;1,0;0,0
166;brawlBall;SHELLY;EL PRIMO FRANK;1,0;0,0
167;brawlBall;SHELLY;DARRYL ROSA;1,0;0,0
168;brawlBall;SHELLY;BULL PAM;1,0;0,0
169;brawlBall;SHELLY;JACKY NITA;1,0;0,0
170;brawlBall;SHELLY;POCO SPROUT;1,0;0,0
171;brawlBall;SHELLY;EL PRIMO SANDY;1,0;0,0
172;brawlBall;FRANK;;20,0;7,0
173;brawlBall;FRANK;ROSA;15,0;0,0
174;brawlBall;FRANK;BROCK;14,0;0,0
175;brawlBall;FRANK;BIBI;2,0;1,0
176;brawlBall;FRANK;CARL;2,0;1,0
177;brawlBall;FRANK;POCO;2,0;1,0
178;brawlBall;FRANK;COLT;1,0;0,0
179;brawlBall;FRANK;JESSIE;1,0;1,0
180;brawlBall;FRANK;DYNAMIKE;1,0;2,0
181;brawlBall;FRANK;PIPER;1,0;0,0
182;brawlBall;FRANK;PENNY;1,0;0,0
183;brawlBall;FRANK;BROCK ROSA;14,0;0,0
184;brawlBall;FRANK;COLT DYNAMIKE;1,0;0,0
185;brawlBall;FRANK;BIBI ROSA;1,0;0,0
186;brawlBall;FRANK;CARL PIPER;1,0;0,0
187;brawlBall;FRANK;BIBI POCO;1,0;0,0
188;brawlBall;FRANK;CARL PENNY;1,0;0,0
189;brawlBall;FRANK;JESSIE POCO;1,0;0,0
190;brawlBall;POCO;;11,0;9,0
191;brawlBall;POCO;JESSIE;4,0;2,0
192;brawlBall;POCO;NITA;4,0;0,0
193;brawlBall;POCO;EMZ;3,0;0,0
194;brawlBall;POCO;GENE;2,0;0,0
195;brawlBall;POCO;ROSA;2,0;1,0
196;brawlBall;POCO;FRANK;1,0;1,0
197;brawlBall;POCO;EL PRIMO;1,0;0,0
198;brawlBall;POCO;BEA;1,0;1,0
199;brawlBall;POCO;TARA;1,0;1,0
200;brawlBall;POCO;MORTIS;1,0;1,0
201;brawlBall;POCO;SHELLY;1,0;0,0
202;brawlBall;POCO;RICO;1,0;3,0
203;brawlBall;POCO;EMZ NITA;3,0;0,0
204;brawlBall;POCO;GENE ROSA;2,0;0,0
205;brawlBall;POCO;NITA TARA;1,0;0,0
206;brawlBall;POCO;FRANK JESSIE;1,0;0,0
207;brawlBall;POCO;EL PRIMO JESSIE;1,0;0,0
208;brawlBall;POCO;JESSIE MORTIS;1,0;0,0
209;brawlBall;POCO;JESSIE SHELLY;1,0;0,0
210;brawlBall;POCO;BEA RICO;1,0;1,0
211;brawlBall;NITA;;8,0;4,0
212;brawlBall;NITA;JESSIE;4,0;2,0
213;brawlBall;NITA;SHELLY;3,0;0,0
214;brawlBall;NITA;BIBI;2,0;0,0
215;brawlBall;NITA;POCO;2,0;0,0
216;brawlBall;NITA;BROCK;1,0;1,0
217;brawlBall;NITA;CROW;1,0;0,0
218;brawlBall;NITA;EMZ;1,0;0,0
219;brawlBall;NITA;TICK;1,0;0,0
220;brawlBall;NITA;LEON;1,0;0,0
221;brawlBall;NITA;BROCK SHELLY;1,0;0,0
222;brawlBall;NITA;BIBI POCO;1,0;0,0
223;brawlBall;NITA;BIBI SHELLY;1,0;0,0
224;brawlBall;NITA;CROW JESSIE;1,0;0,0
225;brawlBall;NITA;EMZ JESSIE;1,0;0,0
226;brawlBall;NITA;POCO SHELLY;1,0;0,0
227;brawlBall;NITA;JESSIE TICK;1,0;0,0
228;brawlBall;NITA;JESSIE LEON;1,0;0,0
229;brawlBall;ROSA;;8,0;2,0
230;brawlBall;ROSA;POCO;3,0;0,0
231;brawlBall;ROSA;EL PRIMO;2,0;1,0
232;brawlBall;ROSA;SHELLY;2,0;0,0
233;brawlBall;ROSA;PAM;1,0;0,0
234;brawlBall;ROSA;BROCK;1,0;1,0
235;brawlBall;ROSA;JESSIE;1,0;0,0
236;brawlBall;ROSA;BARLEY;1,0;0,0
237;brawlBall;ROSA;8-BIT;1,0;0,0
238;brawlBall;ROSA;TARA;1,0;0,0
239;brawlBall;ROSA;DARRYL;1,0;0,0
240;brawlBall;ROSA;DYNAMIKE;1,0;0,0
241;brawlBall;ROSA;RICO;1,0;0,0
242;brawlBall;ROSA;PAM POCO;1,0;0,0
243;brawlBall;ROSA;EL PRIMO TARA;1,0;0,0
244;brawlBall;ROSA;BROCK DARRYL;1,0;0,0
245;brawlBall;ROSA;POCO SHELLY;1,0;0,0
246;brawlBall;ROSA;JESSIE SHELLY;1,0;0,0
247;brawlBall;ROSA;BARLEY DYNAMIKE;1,0;0,0
248;brawlBall;ROSA;EL PRIMO POCO;1,0;0,0
249;brawlBall;ROSA;8-BIT RICO;1,0;0,0
250;brawlBall;BROCK;;7,0;1,0
251;brawlBall;BROCK;FRANK;6,0;0,0
252;brawlBall;BROCK;PAM;6,0;0,0
253;brawlBall;BROCK;BEA;1,0;0,0
254;brawlBall;BROCK;DARRYL;1,0;0,0
255;brawlBall;BROCK;FRANK PAM;6,0;0,0
256;brawlBall;BROCK;BEA DARRYL;1,0;0,0
257;brawlBall;BO;;6,0;0,0
258;brawlBall;BO;8-BIT;5,0;0,0
259;brawlBall;BO;ROSA;4,0;0,0
260;brawlBall;BO;PAM;1,0;0,0
261;brawlBall;BO;POCO;1,0;0,0
262;brawlBall;BO;SHELLY;1,0;0,0
263;brawlBall;BO;8-BIT ROSA;3,0;0,0
264;brawlBall;BO;PAM ROSA;1,0;0,0
265;brawlBall;BO;8-BIT POCO;1,0;0,0
266;brawlBall;BO;8-BIT SHELLY;1,0;0,0
267;brawlBall;COLT;;6,0;1,0
268;brawlBall;COLT;ROSA;5,0;0,0
269;brawlBall;COLT;SHELLY;5,0;0,0
270;brawlBall;COLT;POCO;1,0;0,0
271;brawlBall;COLT;BROCK;1,0;0,0
272;brawlBall;COLT;ROSA SHELLY;4,0;0,0
273;brawlBall;COLT;POCO SHELLY;1,0;0,0
274;brawlBall;COLT;BROCK ROSA;1,0;0,0
275;brawlBall;JESSIE;;3,0;1,0
276;brawlBall;JESSIE;POCO;2,0;0,0
277;brawlBall;JESSIE;SHELLY;2,0;0,0
278;brawlBall;JESSIE;BEA;1,0;0,0
279;brawlBall;JESSIE;SPROUT;1,0;0,0
280;brawlBall;JESSIE;POCO SHELLY;2,0;0,0
281;brawlBall;JESSIE;BEA SPROUT;1,0;0,0
282;brawlBall;DYNAMIKE;;3,0;0,0
283;brawlBall;DYNAMIKE;BULL;2,0;0,0
284;brawlBall;DYNAMIKE;BROCK;1,0;0,0
285;brawlBall;DYNAMIKE;COLT;1,0;0,0
286;brawlBall;DYNAMIKE;MAX;1,0;0,0
287;brawlBall;DYNAMIKE;SPROUT;1,0;0,0
288;brawlBall;DYNAMIKE;BROCK COLT;1,0;0,0
289;brawlBall;DYNAMIKE;BULL MAX;1,0;0,0
290;brawlBall;DYNAMIKE;BULL SPROUT;1,0;0,0
291;brawlBall;EMZ;;3,0;1,0
292;brawlBall;EMZ;JESSIE;1,0;0,0
293;brawlBall;EMZ;COLT;1,0;0,0
294;brawlBall;EMZ;BEA;1,0;0,0
295;brawlBall;EMZ;NITA;1,0;0,0
296;brawlBall;EMZ;SHELLY;1,0;0,0
297;brawlBall;EMZ;PENNY;1,0;0,0
298;brawlBall;EMZ;JESSIE NITA;1,0;0,0
299;brawlBall;EMZ;COLT SHELLY;1,0;0,0
300;brawlBall;EMZ;BEA PENNY;1,0;0,0
301;brawlBall;8-BIT;;1,0;3,0
302;brawlBall;8-BIT;COLT;1,0;1,0
303;brawlBall;8-BIT;POCO;1,0;2,0
304;brawlBall;8-BIT;COLT POCO;1,0;1,0
305;brawlBall;JACKY;;1,0;0,0
306;brawlBall;JACKY;POCO;1,0;0,0
307;brawlBall;JACKY;TARA;1,0;0,0
308;brawlBall;JACKY;POCO TARA;1,0;0,0
309;brawlBall;BIBI;;1,0;8,0
310;brawlBall;BIBI;MORTIS;1,0;1,0
311;brawlBall;BIBI;TARA;1,0;3,0
312;brawlBall;BIBI;MORTIS TARA;1,0;0,0
313;brawlBall;BULL;;1,0;0,0
314;brawlBall;BULL;GENE;1,0;0,0
315;brawlBall;BULL;MR. P;1,0;0,0
316;brawlBall;BULL;GENE MR. P;1,0;0,0
317;brawlBall;RICO;;1,0;3,0
318;brawlBall;RICO;BIBI;1,0;1,0
319;brawlBall;RICO;MR. P;1,0;0,0
320;brawlBall;RICO;BIBI MR. P;1,0;0,0
321;brawlBall;TARA;;1,0;2,0
322;brawlBall;TARA;MR. P;1,0;0,0
323;brawlBall;TARA;RICO;1,0;1,0
324;brawlBall;TARA;MR. P RICO;1,0;0,0
325;siege;JESSIE;;17,0;5,0
326;siege;JESSIE;PENNY;6,0;3,0
327;siege;JESSIE;NITA;5,0;1,0
328;siege;JESSIE;ROSA;4,0;0,0
329;siege;JESSIE;TICK;4,0;0,0
330;siege;JESSIE;COLT;3,0;0,0
331;siege;JESSIE;SHELLY;3,0;1,0
332;siege;JESSIE;BO;2,0;0,0
333;siege;JESSIE;EL PRIMO;2,0;1,0
334;siege;JESSIE;SANDY;2,0;0,0
335;siege;JESSIE;BULL;1,0;0,0
336;siege;JESSIE;BROCK;1,0;0,0
337;siege;JESSIE;POCO;1,0;0,0
338;siege;JESSIE;NITA PENNY;5,0;1,0
339;siege;JESSIE;ROSA TICK;4,0;0,0
340;siege;JESSIE;COLT SHELLY;1,0;0,0
341;siege;JESSIE;COLT EL PRIMO;1,0;0,0
342;siege;JESSIE;BULL POCO;1,0;0,0
343;siege;JESSIE;BO COLT;1,0;0,0
344;siege;JESSIE;EL PRIMO SHELLY;1,0;0,0
345;siege;JESSIE;BO SHELLY;1,0;0,0
346;siege;JESSIE;BROCK SANDY;1,0;0,0
347;siege;JESSIE;PENNY SANDY;1,0;0,0
348;siege;BARLEY;;8,0;2,0
349;siege;BARLEY;GENE;5,0;0,0
350;siege;BARLEY;BULL;4,0;0,0
351;siege;BARLEY;BO;3,0;1,0
352;siege;BARLEY;POCO;2,0;1,0
353;siege;BARLEY;SHELLY;1,0;0,0
354;siege;BARLEY;DARRYL;1,0;1,0
355;siege;BARLEY;BULL GENE;4,0;0,0
356;siege;BARLEY;BO POCO;2,0;1,0
357;siege;BARLEY;GENE SHELLY;1,0;0,0
358;siege;BARLEY;BO DARRYL;1,0;0,0
359;siege;FRANK;;5,0;3,0
360;siege;FRANK;DYNAMIKE;3,0;1,0
361;siege;FRANK;EMZ;2,0;1,0
362;siege;FRANK;BEA;1,0;1,0
363;siege;FRANK;BROCK;1,0;0,0
364;siege;FRANK;LEON;1,0;0,0
365;siege;FRANK;SHELLY;1,0;0,0
366;siege;FRANK;JESSIE;1,0;0,0
367;siege;FRANK;BEA DYNAMIKE;1,0;0,0
368;siege;FRANK;DYNAMIKE LEON;1,0;0,0
369;siege;FRANK;EMZ SHELLY;1,0;0,0
370;siege;FRANK;BROCK EMZ;1,0;0,0
371;siege;FRANK;DYNAMIKE JESSIE;1,0;0,0
372;siege;RICO;;5,0;1,0
373;siege;RICO;BROCK;3,0;0,0
374;siege;RICO;FRANK;3,0;0,0
375;siege;RICO;GENE;1,0;1,0
376;siege;RICO;BEA;1,0;1,0
377;siege;RICO;ROSA;1,0;0,0
378;siege;RICO;NITA;1,0;0,0
379;siege;RICO;BROCK FRANK;3,0;0,0
380;siege;RICO;GENE ROSA;1,0;0,0
381;siege;RICO;BEA NITA;1,0;0,0
382;siege;SHELLY;;4,0;0,0
383;siege;SHELLY;POCO;4,0;0,0
384;siege;SHELLY;EL PRIMO;2,0;0,0
385;siege;SHELLY;COLT;1,0;0,0
386;siege;SHELLY;ROSA;1,0;0,0
387;siege;SHELLY;EL PRIMO POCO;2,0;0,0
388;siege;SHELLY;COLT POCO;1,0;0,0
389;siege;SHELLY;POCO ROSA;1,0;0,0
390;siege;PAM;;2,0;0,0
391;siege;PAM;BARLEY;2,0;0,0
392;siege;PAM;FRANK;2,0;0,0
393;siege;PAM;BARLEY FRANK;2,0;0,0
394;siege;SPROUT;;1,0;3,0
395;siege;SPROUT;EMZ;1,0;2,0
396;siege;SPROUT;PAM;1,0;0,0
397;siege;SPROUT;EMZ PAM;1,0;0,0
398;hotZone;PAM;;23,0;1,0
399;hotZone;PAM;BROCK;13,0;0,0
400;hotZone;PAM;JESSIE;5,0;0,0
401;hotZone;PAM;NITA;3,0;0,0
402;hotZone;PAM;BARLEY;3,0;0,0
403;hotZone;PAM;DARRYL;2,0;0,0
404;hotZone;PAM;JACKY;2,0;0,0
405;hotZone;PAM;EL PRIMO;2,0;0,0
406;hotZone;PAM;TICK;2,0;0,0
407;hotZone;PAM;ROSA;2,0;1,0
408;hotZone;PAM;RICO;2,0;0,0
409;hotZone;PAM;COLT;1,0;0,0
410;hotZone;PAM;BO;1,0;0,0
411;hotZone;PAM;CARL;1,0;0,0
412;hotZone;PAM;BIBI;1,0;0,0
413;hotZone;PAM;PENNY;1,0;0,0
414;hotZone;PAM;PIPER;1,0;0,0
415;hotZone;PAM;FRANK;1,0;0,0
416;hotZone;PAM;SPROUT;1,0;0,0
417;hotZone;PAM;POCO;1,0;0,0
418;hotZone;PAM;DYNAMIKE;1,0;0,0
419;hotZone;PAM;JESSIE NITA;3,0;0,0
420;hotZone;PAM;BARLEY BROCK;2,0;0,0
421;hotZone;PAM;BROCK JACKY;2,0;0,0
422;hotZone;PAM;BROCK DARRYL;2,0;0,0
423;hotZone;PAM;BIBI RICO;1,0;0,0
424;hotZone;PAM;COLT FRANK;1,0;0,0
425;hotZone;PAM;BROCK JESSIE;1,0;0,0
426;hotZone;PAM;BROCK DYNAMIKE;1,0;0,0
427;hotZone;PAM;BROCK POCO;1,0;0,0
428;hotZone;PAM;BROCK SPROUT;1,0;0,0
429;hotZone;PAM;BROCK EL PRIMO;1,0;0,0
430;hotZone;PAM;JESSIE TICK;1,0;0,0
431;hotZone;PAM;BROCK PIPER;1,0;0,0
432;hotZone;PAM;BO EL PRIMO;1,0;0,0
433;hotZone;PAM;BROCK PENNY;1,0;0,0
434;hotZone;PAM;RICO ROSA;1,0;0,0
435;hotZone;PAM;CARL TICK;1,0;0,0
436;hotZone;PAM;BARLEY ROSA;1,0;0,0
437;hotZone;ROSA;;7,0;2,0
438;hotZone;ROSA;BROCK;3,0;0,0
439;hotZone;ROSA;BEA;2,0;0,0
440;hotZone;ROSA;BARLEY;1,0;0,0
441;hotZone;ROSA;BO;1,0;0,0
442;hotZone;ROSA;NITA;1,0;0,0
443;hotZone;ROSA;DARRYL;1,0;0,0
444;hotZone;ROSA;PENNY;1,0;1,0
445;hotZone;ROSA;JESSIE;1,0;0,0
446;hotZone;ROSA;CARL;1,0;0,0
447;hotZone;ROSA;POCO;1,0;0,0
448;hotZone;ROSA;EMZ;1,0;0,0
449;hotZone;ROSA;BROCK DARRYL;1,0;0,0
450;hotZone;ROSA;BEA BROCK;1,0;0,0
451;hotZone;ROSA;BARLEY PENNY;1,0;0,0
452;hotZone;ROSA;BO JESSIE;1,0;0,0
453;hotZone;ROSA;BEA CARL;1,0;0,0
454;hotZone;ROSA;NITA POCO;1,0;0,0
455;hotZone;ROSA;BROCK EMZ;1,0;0,0
456;hotZone;JESSIE;;5,0;0,0
457;hotZone;JESSIE;COLT;4,0;0,0
458;hotZone;JESSIE;FRANK;2,0;0,0
459;hotZone;JESSIE;BEA;1,0;0,0
460;hotZone;JESSIE;BULL;1,0;0,0
461;hotZone;JESSIE;RICO;1,0;0,0
462;hotZone;JESSIE;ROSA;1,0;0,0
463;hotZone;JESSIE;BEA COLT;1,0;0,0
464;hotZone;JESSIE;FRANK RICO;1,0;0,0
465;hotZone;JESSIE;COLT FRANK;1,0;0,0
466;hotZone;JESSIE;BULL COLT;1,0;0,0
467;hotZone;JESSIE;COLT ROSA;1,0;0,0
468;hotZone;BARLEY;;4,0;0,0
469;hotZone;BARLEY;POCO;4,0;0,0
470;hotZone;BARLEY;ROSA;4,0;0,0
471;hotZone;BARLEY;POCO ROSA;4,0;0,0
472;hotZone;TARA;;3,0;4,0
473;hotZone;TARA;JESSIE;2,0;2,0
474;hotZone;TARA;BO;1,0;0,0
475;hotZone;TARA;8-BIT;1,0;0,0
476;hotZone;TARA;NITA;1,0;0,0
477;hotZone;TARA;PENNY;1,0;2,0
478;hotZone;TARA;JESSIE NITA;1,0;0,0
479;hotZone;TARA;BO PENNY;1,0;0,0
480;hotZone;TARA;8-BIT JESSIE;1,0;0,0
481;hotZone;SHELLY;;3,0;0,0
482;hotZone;SHELLY;ROSA;2,0;0,0
483;hotZone;SHELLY;BROCK;1,0;0,0
484;hotZone;SHELLY;EL PRIMO;1,0;0,0
485;hotZone;SHELLY;BULL;1,0;0,0
486;hotZone;SHELLY;JESSIE;1,0;0,0
487;hotZone;SHELLY;BROCK ROSA;1,0;0,0
488;hotZone;SHELLY;EL PRIMO ROSA;1,0;0,0
489;hotZone;SHELLY;BULL JESSIE;1,0;0,0
490;hotZone;BO;;3,0;0,0
491;hotZone;BO;BULL;3,0;0,0
492;hotZone;BO;JESSIE;3,0;0,0
493;hotZone;BO;BULL JESSIE;3,0;0,0
494;hotZone;FRANK;;2,0;0,0
495;hotZone;FRANK;ROSA;2,0;0,0
496;hotZone;FRANK;BIBI;1,0;0,0
497;hotZone;FRANK;BROCK;1,0;0,0
498;hotZone;FRANK;BIBI ROSA;1,0;0,0
499;hotZone;FRANK;BROCK ROSA;1,0;0,0
500;hotZone;COLT;;1,0;0,0
501;hotZone;COLT;PAM;1,0;0,0
502;hotZone;COLT;SHELLY;1,0;0,0
503;hotZone;COLT;PAM SHELLY;1,0;0,0
504;hotZone;BROCK;;1,0;0,0
505;hotZone;BROCK;BULL;1,0;0,0
506;hotZone;BROCK;JESSIE;1,0;0,0
507;hotZone;BROCK;BULL JESSIE;1,0;0,0
508;bounty;BROCK;;13,0;4,0
509;bounty;BROCK;POCO;8,0;2,0
510;bounty;BROCK;ROSA;7,0;1,0
511;bounty;BROCK;COLT;2,0;2,0
512;bounty;BROCK;NITA;2,0;1,0
513;bounty;BROCK;SHELLY;2,0;0,0
514;bounty;BROCK;EMZ;1,0;0,0
515;bounty;BROCK;DYNAMIKE;1,0;0,0
516;bounty;BROCK;BEA;1,0;0,0
517;bounty;BROCK;TARA;1,0;0,0
518;bounty;BROCK;SPROUT;1,0;0,0
519;bounty;BROCK;POCO ROSA;6,0;1,0
520;bounty;BROCK;NITA POCO;2,0;1,0
521;bounty;BROCK;EMZ ROSA;1,0;0,0
522;bounty;BROCK;DYNAMIKE SHELLY;1,0;0,0
523;bounty;BROCK;BEA TARA;1,0;0,0
524;bounty;BROCK;COLT SPROUT;1,0;0,0
525;bounty;BROCK;COLT SHELLY;1,0;0,0
526;bounty;JESSIE;;12,0;5,0
527;bounty;JESSIE;PIPER;5,0;1,0
528;bounty;JESSIE;ROSA;5,0;1,0
529;bounty;JESSIE;SHELLY;3,0;2,0
530;bounty;JESSIE;DYNAMIKE;2,0;1,0
531;bounty;JESSIE;NITA;2,0;1,0
532;bounty;JESSIE;POCO;2,0;1,0
533;bounty;JESSIE;BO;1,0;1,0
534;bounty;JESSIE;BULL;1,0;0,0
535;bounty;JESSIE;BARLEY;1,0;0,0
536;bounty;JESSIE;TICK;1,0;0,0
537;bounty;JESSIE;MAX;1,0;0,0
538;bounty;JESSIE;PIPER ROSA;5,0;1,0
539;bounty;JESSIE;NITA POCO;2,0;1,0
540;bounty;JESSIE;BO SHELLY;1,0;1,0
541;bounty;JESSIE;BULL SHELLY;1,0;0,0
542;bounty;JESSIE;DYNAMIKE SHELLY;1,0;0,0
543;bounty;JESSIE;BARLEY TICK;1,0;0,0
544;bounty;JESSIE;DYNAMIKE MAX;1,0;0,0
545;bounty;SHELLY;;11,0;6,0
546;bounty;SHELLY;BULL;6,0;3,0
547;bounty;SHELLY;BO;2,0;1,0
548;bounty;SHELLY;BEA;2,0;1,0
549;bounty;SHELLY;COLT;2,0;0,0
550;bounty;SHELLY;TARA;2,0;0,0
551;bounty;SHELLY;JACKY;2,0;0,0
552;bounty;SHELLY;MAX;1,0;1,0
553;bounty;SHELLY;DYNAMIKE;1,0;0,0
554;bounty;SHELLY;MR. P;1,0;0,0
555;bounty;SHELLY;NITA;1,0;0,0
556;bounty;SHELLY;EL PRIMO;1,0;0,0
557;bounty;SHELLY;JESSIE;1,0;0,0
558;bounty;SHELLY;BO BULL;1,0;1,0
559;bounty;SHELLY;MAX MR. P;1,0;0,0
560;bounty;SHELLY;BULL TARA;1,0;0,0
561;bounty;SHELLY;BEA BULL;1,0;0,0
562;bounty;SHELLY;BEA TARA;1,0;0,0
563;bounty;SHELLY;BULL NITA;1,0;0,0
564;bounty;SHELLY;DYNAMIKE EL PRIMO;1,0;0,0
565;bounty;SHELLY;COLT JACKY;1,0;0,0
566;bounty;SHELLY;BULL JACKY;1,0;0,0
567;bounty;SHELLY;BULL COLT;1,0;0,0
568;bounty;SHELLY;BO JESSIE;1,0;0,0
569;bounty;PIPER;;4,0;5,0
570;bounty;PIPER;PENNY;3,0;0,0
571;bounty;PIPER;COLT;1,0;1,0
572;bounty;PIPER;SHELLY;1,0;1,0
573;bounty;PIPER;DARRYL;1,0;0,0
574;bounty;PIPER;CROW;1,0;0,0
575;bounty;PIPER;TARA;1,0;2,0
576;bounty;PIPER;COLT PENNY;1,0;0,0
577;bounty;PIPER;SHELLY TARA;1,0;0,0
578;bounty;PIPER;DARRYL PENNY;1,0;0,0
579;bounty;PIPER;CROW PENNY;1,0;0,0
580;bounty;PENNY;;1,0;2,0
581;bounty;PENNY;BO;1,0;1,0
582;bounty;PENNY;BULL;1,0;1,0
583;bounty;PENNY;BO BULL;1,0;1,0
584;bounty;TARA;;1,0;0,0
585;bounty;TARA;BARLEY;1,0;0,0
586;bounty;TARA;SANDY;1,0;0,0
587;bounty;TARA;BARLEY SANDY;1,0;0,0
588;bounty;SPROUT;;1,0;0,0
589;bounty;SPROUT;CROW;1,0;0,0
590;bounty;SPROUT;TARA;1,0;0,0
591;bounty;SPROUT;CROW TARA;1,0;0,0
592;bounty;EMZ;;1,0;0,0
593;bounty;EMZ;BO;1,0;0,0
594;bounty;EMZ;ROSA;1,0;0,0
595;bounty;EMZ;BO ROSA;1,0;0,0
596;heist;JESSIE;;12,0;4,0
597;heist;JESSIE;BROCK;7,0;2,0
598;heist;JESSIE;BULL;5,0;2,0
599;heist;JESSIE;COLT;4,0;2,0
600;heist;JESSIE;EL PRIMO;3,0;0,0
601;heist;JESSIE;BARLEY;2,0;1,0
602;heist;JESSIE;DARRYL;1,0;0,0
603;heist;JESSIE;MR. P;1,0;0,0
604;heist;JESSIE;RICO;1,0;0,0
605;heist;JESSIE;BROCK COLT;3,0;2,0
606;heist;JESSIE;BULL EL PRIMO;2,0;0,0
607;heist;JESSIE;BARLEY BULL;2,0;1,0
608;heist;JESSIE;COLT DARRYL;1,0;0,0
609;heist;JESSIE;BROCK MR. P;1,0;0,0
610;heist;JESSIE;BROCK EL PRIMO;1,0;0,0
611;heist;JESSIE;BROCK BULL;1,0;0,0
612;heist;JESSIE;BROCK RICO;1,0;0,0
613;heist;BULL;;5,0;0,0
614;heist;BULL;BARLEY;3,0;0,0
615;heist;BULL;BROCK;1,0;0,0
616;heist;BULL;BO;1,0;0,0
617;heist;BULL;COLT;1,0;0,0
618;heist;BULL;PENNY;1,0;0,0
619;heist;BULL;POCO;1,0;0,0
620;heist;BULL;PIPER;1,0;0,0
621;heist;BULL;DYNAMIKE;1,0;0,0
622;heist;BULL;BROCK COLT;1,0;0,0
623;heist;BULL;BARLEY PENNY;1,0;0,0
624;heist;BULL;BARLEY POCO;1,0;0,0
625;heist;BULL;BARLEY PIPER;1,0;0,0
626;heist;BULL;BO DYNAMIKE;1,0;0,0
627;heist;NITA;;4,0;0,0
628;heist;NITA;JESSIE;3,0;0,0
629;heist;NITA;EMZ;2,0;0,0
630;heist;NITA;EL PRIMO;1,0;0,0
631;heist;NITA;DYNAMIKE;1,0;0,0
632;heist;NITA;POCO;1,0;0,0
633;heist;NITA;EMZ JESSIE;2,0;0,0
634;heist;NITA;EL PRIMO JESSIE;1,0;0,0
635;heist;NITA;DYNAMIKE POCO;1,0;0,0
636;heist;ROSA;;3,0;0,0
637;heist;ROSA;BARLEY;3,0;0,0
638;heist;ROSA;JESSIE;2,0;0,0
639;heist;ROSA;NITA;1,0;0,0
640;heist;ROSA;BARLEY JESSIE;2,0;0,0
641;heist;ROSA;BARLEY NITA;1,0;0,0
642;heist;BROCK;;3,0;1,0
643;heist;BROCK;BARLEY;2,0;0,0
644;heist;BROCK;DYNAMIKE;1,0;0,0
645;heist;BROCK;CARL;1,0;0,0
646;heist;BROCK;RICO;1,0;1,0
647;heist;BROCK;BEA;1,0;0,0
648;heist;BROCK;BARLEY CARL;1,0;0,0
649;heist;BROCK;DYNAMIKE RICO;1,0;0,0
650;heist;BROCK;BARLEY BEA;1,0;0,0
651;heist;DYNAMIKE;;2,0;0,0
652;heist;DYNAMIKE;JESSIE;1,0;0,0
653;heist;DYNAMIKE;MR. P;1,0;0,0
654;heist;DYNAMIKE;PENNY;1,0;0,0
655;heist;DYNAMIKE;PAM;1,0;0,0
656;heist;DYNAMIKE;JESSIE PENNY;1,0;0,0
657;heist;DYNAMIKE;MR. P PAM;1,0;0,0
658;heist;RICO;;2,0;0,0
659;heist;RICO;BO;1,0;0,0
660;heist;RICO;BROCK;1,0;0,0
661;heist;RICO;DYNAMIKE;1,0;0,0
662;heist;RICO;FRANK;1,0;0,0
663;heist;RICO;BO DYNAMIKE;1,0;0,0
664;heist;RICO;BROCK FRANK;1,0;0,0
665;heist;BARLEY;;1,0;0,0
666;heist;BARLEY;BROCK;1,0;0,0
667;heist;BARLEY;COLT;1,0;0,0
668;heist;BARLEY;BROCK COLT;1,0;0,0
669;gemGrab;EMZ;COLT;0,0;1,0
670;gemGrab;EMZ;SANDY;0,0;1,0
671;gemGrab;EMZ;BARLEY SHELLY;0,0;1,0
672;gemGrab;EMZ;COLT SHELLY;0,0;1,0
673;gemGrab;EMZ;SANDY SHELLY;0,0;1,0
674;gemGrab;BROCK;DARRYL;0,0;1,0
675;gemGrab;BROCK;PENNY;0,0;1,0
676;gemGrab;BROCK;COLT DARRYL;0,0;1,0
677;gemGrab;BROCK;BARLEY PENNY;0,0;1,0
678;gemGrab;DYNAMIKE;JACKY;0,0;1,0
679;gemGrab;DYNAMIKE;BO;0,0;1,0
680;gemGrab;DYNAMIKE;RICO;0,0;1,0
681;gemGrab;DYNAMIKE;NITA;0,0;1,0
682;gemGrab;DYNAMIKE;JACKY RICO;0,0;1,0
683;gemGrab;DYNAMIKE;BO NITA;0,0;1,0
684;gemGrab;BARLEY;SHELLY;0,0;2,0
685;gemGrab;BARLEY;LEON;0,0;1,0
686;gemGrab;BARLEY;JESSIE SHELLY;0,0;1,0
687;gemGrab;BARLEY;LEON SHELLY;0,0;1,0
688;brawlBall;POCO;DARRYL;0,0;2,0
689;brawlBall;POCO;COLT;0,0;1,0
690;brawlBall;POCO;BO;0,0;1,0
691;brawlBall;POCO;BROCK;0,0;1,0
692;brawlBall;POCO;SPIKE;0,0;1,0
693;brawlBall;POCO;PENNY;0,0;1,0
694;brawlBall;POCO;MAX;0,0;1,0
695;brawlBall;POCO;COLT TARA;0,0;1,0
696;brawlBall;POCO;JESSIE SPIKE;0,0;1,0
697;brawlBall;POCO;BO JESSIE;0,0;1,0
698;brawlBall;POCO;DARRYL PENNY;0,0;1,0
699;brawlBall;POCO;BROCK DARRYL;0,0;1,0
700;brawlBall;POCO;FRANK MAX;0,0;1,0
701;brawlBall;POCO;MORTIS RICO;0,0;1,0
702;brawlBall;POCO;RICO ROSA;0,0;1,0
703;brawlBall;BIBI;RICO;0,0;3,0
704;brawlBall;BIBI;JESSIE;0,0;2,0
705;brawlBall;BIBI;POCO;0,0;2,0
706;brawlBall;BIBI;EL PRIMO;0,0;1,0
707;brawlBall;BIBI;BO;0,0;1,0
708;brawlBall;BIBI;FRANK;0,0;1,0
709;brawlBall;BIBI;COLT;0,0;1,0
710;brawlBall;BIBI;EMZ;0,0;1,0
711;brawlBall;BIBI;EL PRIMO MORTIS;0,0;1,0
712;brawlBall;BIBI;POCO RICO;0,0;1,0
713;brawlBall;BIBI;JESSIE POCO;0,0;1,0
714;brawlBall;BIBI;BO TARA;0,0;1,0
715;brawlBall;BIBI;RICO TARA;0,0;1,0
716;brawlBall;BIBI;FRANK RICO;0,0;1,0
717;brawlBall;BIBI;COLT EMZ;0,0;1,0
718;brawlBall;BIBI;JESSIE TARA;0,0;1,0
719;brawlBall;FRANK;BO;0,0;2,0
720;brawlBall;FRANK;EL PRIMO;0,0;1,0
721;brawlBall;FRANK;DARRYL;0,0;1,0
722;brawlBall;FRANK;GENE;0,0;1,0
723;brawlBall;FRANK;TARA;0,0;1,0
724;brawlBall;FRANK;MAX;0,0;1,0
725;brawlBall;FRANK;RICO;0,0;1,0
726;brawlBall;FRANK;EL PRIMO TARA;0,0;1,0
727;brawlBall;FRANK;CARL JESSIE;0,0;1,0
728;brawlBall;FRANK;DARRYL MAX;0,0;1,0
729;brawlBall;FRANK;BIBI BO;0,0;1,0
730;brawlBall;FRANK;BO DYNAMIKE;0,0;1,0
731;brawlBall;FRANK;GENE RICO;0,0;1,0
732;brawlBall;FRANK;DYNAMIKE POCO;0,0;1,0
733;brawlBall;SHELLY;DARRYL JESSIE;0,0;1,0
734;brawlBall;SHELLY;BULL COLT;0,0;1,0
735;brawlBall;SHELLY;COLT FRANK;0,0;1,0
736;brawlBall;NITA;COLT;0,0;2,0
737;brawlBall;NITA;EL PRIMO;0,0;1,0
738;brawlBall;NITA;RICO;0,0;1,0
739;brawlBall;NITA;SPIKE;0,0;1,0
740;brawlBall;NITA;COLT EL PRIMO;0,0;1,0
741;brawlBall;NITA;BROCK COLT;0,0;1,0
742;brawlBall;NITA;JESSIE RICO;0,0;1,0
743;brawlBall;NITA;JESSIE SPIKE;0,0;1,0
744;brawlBall;RICO;EL PRIMO;0,0;1,0
745;brawlBall;RICO;BARLEY;0,0;1,0
746;brawlBall;RICO;POCO;0,0;1,0
747;brawlBall;RICO;GENE;0,0;1,0
748;brawlBall;RICO;TICK;0,0;1,0
749;brawlBall;RICO;BIBI POCO;0,0;1,0
750;brawlBall;RICO;EL PRIMO GENE;0,0;1,0
751;brawlBall;RICO;BARLEY TICK;0,0;1,0
752;brawlBall;8-BIT;BARLEY;0,0;1,0
753;brawlBall;8-BIT;DARRYL;0,0;1,0
754;brawlBall;8-BIT;MORTIS;0,0;1,0
755;brawlBall;8-BIT;BARLEY POCO;0,0;1,0
756;brawlBall;8-BIT;DARRYL MORTIS;0,0;1,0
757;brawlBall;DARRYL;;0,0;3,0
758;brawlBall;DARRYL;EL PRIMO;0,0;2,0
759;brawlBall;DARRYL;FRANK;0,0;1,0
760;brawlBall;DARRYL;PENNY;0,0;1,0
761;brawlBall;DARRYL;NITA;0,0;1,0
762;brawlBall;DARRYL;EMZ;0,0;1,0
763;brawlBall;DARRYL;FRANK PENNY;0,0;1,0
764;brawlBall;DARRYL;EL PRIMO NITA;0,0;1,0
765;brawlBall;DARRYL;EL PRIMO EMZ;0,0;1,0
766;brawlBall;ROSA;COLT;0,0;1,0
767;brawlBall;ROSA;TICK;0,0;1,0
768;brawlBall;ROSA;BROCK COLT;0,0;1,0
769;brawlBall;ROSA;EL PRIMO TICK;0,0;1,0
770;brawlBall;MORTIS;;0,0;2,0
771;brawlBall;MORTIS;8-BIT;0,0;1,0
772;brawlBall;MORTIS;JESSIE;0,0;1,0
773;brawlBall;MORTIS;MAX;0,0;1,0
774;brawlBall;MORTIS;NITA;0,0;1,0
775;brawlBall;MORTIS;8-BIT MAX;0,0;1,0
776;brawlBall;MORTIS;JESSIE NITA;0,0;1,0
777;brawlBall;TARA;JACKY;0,0;1,0
778;brawlBall;TARA;EL PRIMO;0,0;1,0
779;brawlBall;TARA;EMZ;0,0;1,0
780;brawlBall;TARA;JACKY RICO;0,0;1,0
781;brawlBall;TARA;EL PRIMO EMZ;0,0;1,0
782;brawlBall;EMZ;BIBI;0,0;1,0
783;brawlBall;EMZ;EL PRIMO;0,0;1,0
784;brawlBall;EMZ;BIBI EL PRIMO;0,0;1,0
785;brawlBall;COLT;BULL;0,0;1,0
786;brawlBall;COLT;FRANK;0,0;1,0
787;brawlBall;COLT;BULL FRANK;0,0;1,0
788;brawlBall;CARL;;0,0;1,0
789;brawlBall;CARL;COLT;0,0;1,0
790;brawlBall;CARL;RICO;0,0;1,0
791;brawlBall;CARL;COLT RICO;0,0;1,0
792;brawlBall;JESSIE;COLT;0,0;1,0
793;brawlBall;JESSIE;NITA;0,0;1,0
794;brawlBall;JESSIE;COLT NITA;0,0;1,0
795;brawlBall;PIPER;;0,0;1,0
796;brawlBall;PIPER;COLT;0,0;1,0
797;brawlBall;PIPER;GENE;0,0;1,0
798;brawlBall;PIPER;COLT GENE;0,0;1,0
799;brawlBall;BROCK;JESSIE;0,0;1,0
800;brawlBall;BROCK;MAX;0,0;1,0
801;brawlBall;BROCK;JESSIE MAX;0,0;1,0
802;hotZone;TARA;FRANK;0,0;1,0
803;hotZone;TARA;EL PRIMO;0,0;1,0
804;hotZone;TARA;EMZ;0,0;1,0
805;hotZone;TARA;SANDY;0,0;1,0
806;hotZone;TARA;FRANK PENNY;0,0;1,0
807;hotZone;TARA;EL PRIMO PENNY;0,0;1,0
808;hotZone;TARA;EMZ JESSIE;0,0;1,0
809;hotZone;TARA;JESSIE SANDY;0,0;1,0
810;hotZone;ROSA;COLT;0,0;1,0
811;hotZone;ROSA;RICO;0,0;1,0
812;hotZone;ROSA;FRANK;0,0;1,0
813;hotZone;ROSA;PENNY RICO;0,0;1,0
814;hotZone;ROSA;COLT FRANK;0,0;1,0
815;hotZone;EMZ;;0,0;2,0
816;hotZone;EMZ;FRANK;0,0;1,0
817;hotZone;EMZ;SPIKE;0,0;1,0
818;hotZone;EMZ;JESSIE;0,0;1,0
819;hotZone;EMZ;TARA;0,0;1,0
820;hotZone;EMZ;FRANK JESSIE;0,0;1,0
821;hotZone;EMZ;SPIKE TARA;0,0;1,0
822;hotZone;PAM;SHELLY;0,0;1,0
823;hotZone;PAM;ROSA SHELLY;0,0;1,0
824;siege;JESSIE;JACKY;0,0;1,0
825;siege;JESSIE;CROW;0,0;1,0
826;siege;JESSIE;PIPER;0,0;1,0
827;siege;JESSIE;EMZ;0,0;1,0
828;siege;JESSIE;JACKY PIPER;0,0;1,0
829;siege;JESSIE;EL PRIMO EMZ;0,0;1,0
830;siege;JESSIE;PENNY SHELLY;0,0;1,0
831;siege;JESSIE;CROW PENNY;0,0;1,0
832;siege;SPROUT;DARRYL;0,0;1,0
833;siege;SPROUT;COLT;0,0;1,0
834;siege;SPROUT;RICO;0,0;1,0
835;siege;SPROUT;GALE;0,0;1,0
836;siege;SPROUT;DARRYL RICO;0,0;1,0
837;siege;SPROUT;COLT EMZ;0,0;1,0
838;siege;SPROUT;EMZ GALE;0,0;1,0
839;siege;FRANK;CARL;0,0;1,0
840;siege;FRANK;PAM;0,0;1,0
841;siege;FRANK;DARRYL;0,0;1,0
842;siege;FRANK;BEA PAM;0,0;1,0
843;siege;FRANK;DYNAMIKE EMZ;0,0;1,0
844;siege;FRANK;CARL DARRYL;0,0;1,0
845;siege;BARLEY;MAX;0,0;1,0
846;siege;BARLEY;DARRYL MAX;0,0;1,0
847;siege;8-BIT;;0,0;1,0
848;siege;8-BIT;NITA;0,0;1,0
849;siege;8-BIT;PENNY;0,0;1,0
850;siege;8-BIT;NITA PENNY;0,0;1,0
851;siege;TICK;;0,0;1,0
852;siege;TICK;DYNAMIKE;0,0;1,0
853;siege;TICK;LEON;0,0;1,0
854;siege;TICK;DYNAMIKE LEON;0,0;1,0
855;siege;ROSA;;0,0;1,0
856;siege;ROSA;CARL;0,0;1,0
857;siege;ROSA;GALE;0,0;1,0
858;siege;ROSA;CARL GALE;0,0;1,0
859;siege;EMZ;;0,0;1,0
860;siege;EMZ;POCO;0,0;1,0
861;siege;EMZ;ROSA;0,0;1,0
862;siege;EMZ;POCO ROSA;0,0;1,0
863;siege;PIPER;;0,0;1,0
864;siege;PIPER;POCO;0,0;1,0
865;siege;PIPER;ROSA;0,0;1,0
866;siege;PIPER;POCO ROSA;0,0;1,0
867;siege;RICO;BEA GENE;0,0;1,0
868;siege;BROCK;;0,0;1,0
869;siege;BROCK;COLT;0,0;1,0
870;siege;BROCK;EMZ;0,0;1,0
871;siege;BROCK;COLT EMZ;0,0;1,0
872;bounty;SHELLY;ROSA;0,0;2,0
873;bounty;SHELLY;BROCK;0,0;1,0
874;bounty;SHELLY;BIBI;0,0;1,0
875;bounty;SHELLY;TICK;0,0;1,0
876;bounty;SHELLY;PIPER;0,0;1,0
877;bounty;SHELLY;BULL ROSA;0,0;2,0
878;bounty;SHELLY;BROCK TICK;0,0;1,0
879;bounty;SHELLY;BIBI MAX;0,0;1,0
880;bounty;SHELLY;BEA PIPER;0,0;1,0
881;bounty;PIPER;BO;0,0;3,0
882;bounty;PIPER;MAX;0,0;1,0
883;bounty;PIPER;ROSA;0,0;1,0
884;bounty;PIPER;SPIKE;0,0;1,0
885;bounty;PIPER;BO TARA;0,0;2,0
886;bounty;PIPER;COLT SHELLY;0,0;1,0
887;bounty;PIPER;BO ROSA;0,0;1,0
888;bounty;PIPER;MAX SPIKE;0,0;1,0
889;bounty;JESSIE;PENNY;0,0;1,0
890;bounty;JESSIE;EMZ;0,0;1,0
891;bounty;JESSIE;DYNAMIKE EMZ;0,0;1,0
892;bounty;JESSIE;PENNY SHELLY;0,0;1,0
893;bounty;BROCK;BULL;0,0;1,0
894;bounty;BROCK;BARLEY;0,0;1,0
895;bounty;BROCK;BULL COLT;0,0;1,0
896;bounty;BROCK;BARLEY COLT;0,0;1,0
897;bounty;PENNY;BROCK;0,0;1,0
898;bounty;PENNY;MR. P;0,0;1,0
899;bounty;PENNY;BROCK MR. P;0,0;1,0
900;bounty;NITA;;0,0;1,0
901;bounty;NITA;PIPER;0,0;1,0
902;bounty;NITA;TICK;0,0;1,0
903;bounty;NITA;PIPER TICK;0,0;1,0
904;heist;JESSIE;EMZ;0,0;1,0
905;heist;JESSIE;BULL EMZ;0,0;1,0
906;heist;EMZ;;0,0;1,0
907;heist;EMZ;BULL;0,0;1,0
908;heist;EMZ;JESSIE;0,0;1,0
909;heist;EMZ;BULL JESSIE;0,0;1,0
910;heist;MAX;;0,0;1,0
911;heist;MAX;BULL;0,0;1,0
912;heist;MAX;PENNY;0,0;1,0
913;heist;MAX;BULL PENNY;0,0;1,0
914;heist;BROCK;FRANK;0,0;1,0
915;heist;BROCK;FRANK RICO;0,0;1,0
