Storm_brawler;p1;p2;result;mode;map;duration;ad1_brawler;ad2_brawler;ad3_brawler
EMZ;BARLEY;NITA;victory;gemGrab;Escape Velocity;94;DARRYL;EL PRIMO;SPIKE
EMZ;BARLEY;SHELLY;defeat;gemGrab;Escape Velocity;83;JESSIE;NITA;ROSA
EMZ;NITA;POCO;victory;gemGrab;Escape Velocity;82;EL PRIMO;RICO;SHELLY
BO;PAM;ROSA;victory;brawlBall;Warped Arena;109;EL PRIMO;EMZ;RICO
BO;8-BIT;POCO;victory;brawlBall;Warped Arena;150;EL PRIMO;LEON;ROSA
BO;8-BIT;SHELLY;victory;brawlBall;Warped Arena;106;EL PRIMO;EMZ;MORTIS
BO;8-BIT;ROSA;victory;brawlBall;Warped Arena;94;BARLEY;MORTIS;PIPER
BO;8-BIT;ROSA;victory;brawlBall;Warped Arena;86;BEA;BROCK;PIPER
BO;8-BIT;ROSA;victory;brawlBall;Warped Arena;40;CARL;EL PRIMO;SHELLY
POCO;COLT;TARA;defeat;brawlBall;Warped Arena;113;BARLEY;EL PRIMO;POCO
POCO;NITA;TARA;victory;brawlBall;Warped Arena;204;BO;JACKY;SHELLY
FRANK;EL PRIMO;TARA;defeat;brawlBall;Warped Arena;77;MORTIS;POCO;SHELLY
BIBI;EL PRIMO;MORTIS;defeat;brawlBall;Warped Arena;70;COLT;NITA;POCO
POCO;FRANK;JESSIE;victory;brawlBall;Warped Arena;46;COLT;EL PRIMO;TICK
POCO;EL PRIMO;JESSIE;victory;brawlBall;Warped Arena;189;DYNAMIKE;EMZ;SPIKE
POCO;JESSIE;SPIKE;defeat;brawlBall;Warped Arena;168;FRANK;RICO;TARA
POCO;JESSIE;MORTIS;victory;brawlBall;Warped Arena;61;BO;FRANK;JESSIE
POCO;JESSIE;SHELLY;victory;brawlBall;Warped Arena;142;BIBI;NITA;SHELLY
SHELLY;DARRYL;JESSIE;defeat;brawlBall;Warped Arena;86;EMZ;FRANK;TARA
POCO;BO;JESSIE;defeat;brawlBall;Warped Arena;66;BULL;FRANK;JESSIE
ROSA;PENNY;RICO;defeat;hotZone;Breakout Brawl;84;BEA;BULL;ROSA
FRANK;COLT;DYNAMIKE;victory;brawlBall;Shoulder Bash;36;BO;EL PRIMO;PENNY
NITA;COLT;EL PRIMO;defeat;brawlBall;Well Cut;133;FRANK;MORTIS;PAM
NITA;BROCK;COLT;defeat;brawlBall;Well Cut;150;FRANK;GENE;SHELLY
NITA;BROCK;SHELLY;victory;brawlBall;Well Cut;110;BARLEY;DYNAMIKE;NITA
NITA;BIBI;POCO;victory;brawlBall;Well Cut;205;DARRYL;EL PRIMO;SPIKE
NITA;BIBI;SHELLY;victory;brawlBall;Well Cut;102;BIBI;CARL;NITA
SPROUT;DARRYL;RICO;defeat;siege;Fenced In;56;BIBI;DYNAMIKE;PAM
8-BIT;NITA;PENNY;defeat;siege;Fenced In;69;BARLEY;PENNY;TICK
TICK;DYNAMIKE;LEON;defeat;siege;Fenced In;142;BULL;EL PRIMO;TICK
FRANK;BEA;PAM;defeat;siege;Fenced In;150;BARLEY;LEON;TICK
BARLEY;DARRYL;MAX;defeat;siege;Fenced In;143;BROCK;CARL;ROSA
SPROUT;EMZ;PAM;victory;siege;Fenced In;98;BEA;EMZ;MORTIS
FRANK;DYNAMIKE;EMZ;defeat;siege;Fenced In;47;BIBI;BROCK;JESSIE
ROSA;CARL;GALE;defeat;siege;Fenced In;139;FRANK;SHELLY;TICK
SPROUT;COLT;EMZ;defeat;siege;Fenced In;47;DYNAMIKE;MORTIS;PENNY
SPROUT;EMZ;GALE;defeat;siege;Fenced In;93;DYNAMIKE;PENNY;SPROUT
FRANK;BEA;DYNAMIKE;victory;siege;Fenced In;93;COLT;PAM;TICK
FRANK;DYNAMIKE;LEON;victory;siege;Fenced In;90;DYNAMIKE;JESSIE;TICK
FRANK;CARL;DARRYL;defeat;siege;Fenced In;96;BO;PAM;PENNY
FRANK;EMZ;SHELLY;victory;siege;Fenced In;144;8-BIT;EL PRIMO;MAX
FRANK;BROCK;EMZ;victory;siege;Fenced In;144;JESSIE;PENNY;SHELLY
FRANK;DYNAMIKE;JESSIE;victory;siege;Fenced In;143;RICO;ROSA;SANDY
TARA;JESSIE;NITA;victory;hotZone;Golden Hacks;114;EL PRIMO;SANDY;TICK
TARA;FRANK;PENNY;defeat;hotZone;Golden Hacks;81;EMZ;JESSIE;POCO
TARA;EL PRIMO;PENNY;defeat;hotZone;Golden Hacks;118;JESSIE;PENNY;TICK
TARA;BO;PENNY;victory;hotZone;Golden Hacks;97;MORTIS;MR. P;POCO
EMZ;FRANK;JESSIE;defeat;hotZone;Golden Hacks;90;JESSIE;MORTIS;PENNY
TARA;EMZ;JESSIE;defeat;hotZone;Golden Hacks;110;EMZ;PAM;SANDY
TARA;JESSIE;SANDY;defeat;hotZone;Golden Hacks;81;JESSIE;POCO;TICK
TARA;8-BIT;JESSIE;victory;hotZone;Golden Hacks;105;JACKY;POCO;RICO
EMZ;SPIKE;TARA;defeat;hotZone;Golden Hacks;115;EMZ;JESSIE;NITA
BIBI;POCO;RICO;defeat;brawlBall;Triple Dribble;61;EL PRIMO;MORTIS;RICO
RICO;BIBI;POCO;defeat;brawlBall;Triple Dribble;155;LEON;NITA;RICO
RICO;BIBI;MR. P;victory;brawlBall;Triple Dribble;160;EL PRIMO;FRANK;PIPER
ROSA;COLT;FRANK;defeat;hotZone;Street Brawler 2;86;EL PRIMO;JESSIE;ROSA
ROSA;PAM;POCO;victory;brawlBall;Pinball Dreams;35;DYNAMIKE;JACKY;MORTIS
ROSA;EL PRIMO;TARA;victory;brawlBall;Pinball Dreams;60;COLT;EMZ;RICO
ROSA;BROCK;DARRYL;victory;brawlBall;Pinball Dreams;62;COLT;FRANK;RICO
ROSA;BROCK;COLT;defeat;brawlBall;Pinball Dreams;37;CARL;FRANK;GALE
EMZ;JESSIE;NITA;victory;brawlBall;Post Haste;152;BULL;JACKY;SHELLY
EMZ;COLT;SHELLY;victory;brawlBall;Post Haste;150;JESSIE;SHELLY;SPIKE
PIPER;COLT;GENE;defeat;brawlBall;Post Haste;147;CROW;POCO;SPIKE
CARL;COLT;RICO;defeat;brawlBall;Center Field;150;BIBI;FRANK;NITA
FRANK;CARL;JESSIE;defeat;brawlBall;Center Field;150;JESSIE;POCO;TICK
BIBI;JESSIE;POCO;defeat;brawlBall;Center Field;97;CARL;JESSIE;RICO
POCO;DARRYL;PENNY;defeat;brawlBall;Center Field;90;EL PRIMO;NITA;SHELLY
POCO;BROCK;DARRYL;defeat;brawlBall;Center Field;146;EL PRIMO;JESSIE;SHELLY
BIBI;BO;TARA;defeat;brawlBall;Center Field;146;EL PRIMO;POCO;TARA
BIBI;BO;GALE;draw;brawlBall;Center Field;210;BEA;JESSIE;ROSA
RICO;EL PRIMO;GENE;defeat;brawlBall;Center Field;150;DYNAMIKE;MAX;SPROUT
FRANK;DARRYL;MAX;defeat;brawlBall;Center Field;150;CARL;JESSIE;SPIKE
JESSIE;COLT;NITA;defeat;brawlBall;Center Field;80;BIBI;MORTIS;POCO
NITA;JESSIE;RICO;defeat;brawlBall;Center Field;169;DYNAMIKE;EL PRIMO;POCO
NITA;CROW;JESSIE;victory;brawlBall;Center Field;175;EL PRIMO;JESSIE;SHELLY
NITA;EMZ;JESSIE;victory;brawlBall;Center Field;150;EL PRIMO;MORTIS;SHELLY
NITA;BULL;JESSIE;draw;brawlBall;Center Field;210;FRANK;ROSA;SPIKE
BULL;GENE;MR. P;victory;brawlBall;Center Field;115;BIBI;GENE;POCO
NITA;JESSIE;SPIKE;defeat;brawlBall;Center Field;45;EL PRIMO;MR. P;PENNY
DARRYL;FRANK;PENNY;defeat;brawlBall;Pinhole Punt;64;8-BIT;CROW;TARA
MORTIS;8-BIT;MAX;defeat;brawlBall;Pinhole Punt;111;BO;EL PRIMO;TARA
POCO;FRANK;MAX;defeat;brawlBall;Pinhole Punt;112;MR. P;SHELLY;TARA
PIPER;COLT;SHELLY;defeat;bounty;Snake Prairie;120;JESSIE;LEON;TARA
PIPER;COLT;PENNY;victory;bounty;Snake Prairie;120;BO;ROSA;SHELLY
PIPER;SHELLY;TARA;victory;bounty;Snake Prairie;120;BO;BROCK;SHELLY
PIPER;BO;ROSA;defeat;bounty;Snake Prairie;120;BO;PIPER;TARA
PIPER;BO;TARA;defeat;bounty;Snake Prairie;120;BO;BROCK;TARA
PENNY;BO;BULL;defeat;bounty;Snake Prairie;120;BO;SANDY;SHELLY
PENNY;BO;BULL;victory;bounty;Snake Prairie;120;MORTIS;PIPER;ROSA
JESSIE;BO;SHELLY;defeat;bounty;Snake Prairie;120;BO;PENNY;TARA
JESSIE;BO;SHELLY;victory;bounty;Snake Prairie;120;BULL;EMZ;TARA
SHELLY;BO;BULL;victory;bounty;Snake Prairie;120;BULL;PAM;SPIKE
SHELLY;BO;BULL;defeat;bounty;Snake Prairie;120;JESSIE;ROSA;SHELLY
SHELLY;BULL;ROSA;defeat;bounty;Snake Prairie;120;8-BIT;SHELLY;TARA
SHELLY;MAX;MR. P;victory;bounty;Snake Prairie;120;EMZ;MR. P;POCO
SHELLY;BO;NITA;draw;bounty;Snake Prairie;120;BO;SHELLY;TICK
SHELLY;BROCK;TICK;defeat;bounty;Snake Prairie;120;BULL;JESSIE;SHELLY
SHELLY;BULL;TARA;victory;bounty;Snake Prairie;120;BO;BULL;PIPER
SHELLY;BEA;BULL;victory;bounty;Snake Prairie;120;PIPER;RICO;SHELLY
SHELLY;BIBI;MAX;defeat;bounty;Snake Prairie;120;BIBI;PIPER;SHELLY
SHELLY;BEA;PIPER;defeat;bounty;Snake Prairie;120;BO;BULL;SHELLY
SHELLY;BEA;TARA;victory;bounty;Snake Prairie;120;BO;NITA;PIPER
SHELLY;BULL;NITA;victory;bounty;Snake Prairie;120;BULL;JESSIE;SHELLY
BIBI;RICO;TARA;defeat;brawlBall;Beach Ball;150;BIBI;BO;TARA
TARA;JACKY;RICO;defeat;brawlBall;Beach Ball;150;DARRYL;POCO;SHELLY
TARA;MR. P;RICO;victory;brawlBall;Beach Ball;150;DARRYL;MORTIS;RICO
BIBI;NITA;RICO;draw;brawlBall;Beach Ball;210;BROCK;CROW;ROSA
BIBI;FRANK;RICO;defeat;brawlBall;Beach Ball;48;COLT;DARRYL;FRANK
POCO;MORTIS;RICO;defeat;brawlBall;Beach Ball;39;EL PRIMO;MORTIS;PAM
POCO;BEA;RICO;defeat;brawlBall;Beach Ball;96;CARL;NITA;POCO
POCO;BEA;RICO;victory;brawlBall;Beach Ball;164;BIBI;RICO;ROSA
POCO;RICO;ROSA;defeat;brawlBall;Beach Ball;155;BO;JESSIE;POCO
EMZ;COLT;SHELLY;defeat;gemGrab;Stone Fort;140;BO;MR. P;PIPER
EMZ;SANDY;SHELLY;defeat;gemGrab;Stone Fort;88;CROW;LEON;PAM
EMZ;CROW;SHELLY;victory;gemGrab;Stone Fort;82;COLT;EMZ;TARA
JESSIE;BULL;SHELLY;victory;bounty;Deeper Danger;120;BO;JACKY;ROSA
JESSIE;DYNAMIKE;EMZ;defeat;bounty;Deeper Danger;120;MAX;POCO;TARA
JESSIE;DYNAMIKE;SHELLY;victory;bounty;Deeper Danger;120;BROCK;NITA;POCO
JESSIE;PENNY;SHELLY;defeat;bounty;Deeper Danger;120;JACKY;SPROUT;TICK
JESSIE;BARLEY;TICK;victory;bounty;Deeper Danger;120;BO;BULL;TARA
JESSIE;NITA;POCO;defeat;bounty;Deeper Danger;120;POCO;ROSA;SHELLY
JESSIE;NITA;POCO;victory;bounty;Deeper Danger;120;BO;MORTIS;SHELLY
JESSIE;NITA;POCO;victory;bounty;Deeper Danger;120;BULL;MORTIS;PIPER
JESSIE;DYNAMIKE;MAX;victory;bounty;Deeper Danger;120;BIBI;DYNAMIKE;SHELLY
JESSIE;NITA;ROSA;victory;gemGrab;Hard Rock Mine;113;BIBI;JACKY;POCO
PENNY;BROCK;MR. P;defeat;bounty;Layer Cake;120;BROCK;PENNY;SPROUT
BROCK;POCO;ROSA;defeat;bounty;Layer Cake;120;BROCK;PENNY;SPROUT
PIPER;POCO;ROSA;victory;gemGrab;Hard Rock Mine;95;GENE;POCO;ROSA
JESSIE;NITA;ROSA;defeat;gemGrab;Hard Rock Mine;99;NITA;POCO;ROSA
EMZ;BULL;JESSIE;defeat;heist;Hot Potato;134;8-BIT;BULL;NITA
MAX;BULL;PENNY;defeat;heist;Hot Potato;104;8-BIT;BULL;NITA
EMZ;BIBI;EL PRIMO;defeat;brawlBall;Beach Ball;67;EL PRIMO;EMZ;JACKY
TARA;EL PRIMO;EMZ;defeat;brawlBall;Beach Ball;74;EL PRIMO;EMZ;JACKY
EMZ;POCO;ROSA;defeat;siege;Factory Rush;150;GENE;JACKY;PAM
PIPER;POCO;ROSA;defeat;siege;Factory Rush;150;GENE;JACKY;PAM
DARRYL;EL PRIMO;NITA;defeat;brawlBall;Galaxy Arena;136;EL PRIMO;RICO;SHELLY
DARRYL;EL PRIMO;EMZ;defeat;brawlBall;Warped Arena;150;COLT;DARRYL;FRANK
COLT;BULL;FRANK;defeat;brawlBall;Warped Arena;150;FRANK;JACKY;MORTIS
FRANK;BIBI;BO;defeat;brawlBall;Warped Arena;162;8-BIT;DYNAMIKE;PENNY
FRANK;BO;DYNAMIKE;defeat;brawlBall;Warped Arena;116;COLT;EL PRIMO;TARA
FRANK;GENE;RICO;defeat;brawlBall;Warped Arena;118;CARL;SHELLY;SPIKE
FRANK;DYNAMIKE;POCO;defeat;brawlBall;Warped Arena;130;8-BIT;EL PRIMO;NITA
FRANK;BIBI;ROSA;victory;brawlBall;Warped Arena;49;DYNAMIKE;FRANK;POCO
FRANK;CARL;PIPER;victory;brawlBall;Warped Arena;43;8-BIT;EL PRIMO;PENNY
FRANK;BIBI;POCO;victory;brawlBall;Warped Arena;68;CROW;POCO;ROSA
BIBI;COLT;EMZ;defeat;brawlBall;Warped Arena;132;DARRYL;EMZ;MORTIS
BIBI;JESSIE;TARA;defeat;brawlBall;Warped Arena;122;BROCK;EL PRIMO;EMZ
BIBI;MORTIS;TARA;victory;brawlBall;Warped Arena;51;CROW;JACKY;MORTIS
8-BIT;BARLEY;POCO;defeat;brawlBall;Warped Arena;84;BROCK;BULL;DYNAMIKE
8-BIT;COLT;POCO;victory;brawlBall;Warped Arena;179;BULL;PENNY;RICO
8-BIT;DARRYL;MORTIS;defeat;brawlBall;Warped Arena;43;EL PRIMO;JACKY;SPIKE
MORTIS;JESSIE;NITA;defeat;brawlBall;Warped Arena;175;MORTIS;POCO;SPROUT
JACKY;POCO;TARA;victory;brawlBall;Warped Arena;94;GENE;POCO;SPROUT
8-BIT;COLT;POCO;defeat;brawlBall;Warped Arena;150;8-BIT;DARRYL;NITA
PIPER;DARRYL;PENNY;victory;bounty;Land Ahoy;120;CARL;CROW;PAM
PIPER;CROW;PENNY;victory;bounty;Canal Grande;120;DYNAMIKE;MORTIS;PIPER
PIPER;MAX;SPIKE;defeat;bounty;Canal Grande;120;BO;BROCK;DYNAMIKE
PIPER;BO;TARA;defeat;bounty;Snake Prairie;120;BROCK;GENE;NITA
TARA;BARLEY;SANDY;victory;bounty;Heat Wave;120;BARLEY;BO;PIPER
SPROUT;CROW;TARA;victory;bounty;Cobweb;120;BEA;RICO;TICK
PIPER;DYNAMIKE;RICO;draw;bounty;Cobweb;120;8-BIT;BULL;PAM
EMZ;BEA;PENNY;victory;brawlBall;Backyard Bowl;123;BO;SHELLY;TARA
EMZ;BO;ROSA;victory;bounty;Snake Prairie;120;8-BIT;BO;FRANK
