dzor_brawler;p1;p2;result;mode;map;duration;ad1_brawler;ad2_brawler;ad3_brawler
NITA;DYNAMIKE;ROSA;victory;brawlBall;Backyard Bowl;131;BIBI;BULL;COLT
NITA;BULL;MAX;victory;brawlBall;Backyard Bowl;94;DARRYL;DYNAMIKE;JESSIE
NITA;BROCK;EL PRIMO;victory;brawlBall;Backyard Bowl;112;BULL;EL PRIMO;GENE
PIPER;POCO;ROSA;victory;brawlBall;Backyard Bowl;60;BIBI;FRANK;NITA
PIPER;POCO;ROSA;victory;brawlBall;Backyard Bowl;48;DYNAMIKE;PAM;PIPER
BULL;NITA;POCO;defeat;brawlBall;Backyard Bowl;150;BO;EL PRIMO;SHELLY
BULL;NITA;POCO;victory;brawlBall;Backyard Bowl;120;DYNAMIKE;EMZ;PENNY
BULL;NITA;POCO;victory;brawlBall;Backyard Bowl;68;BEA;BULL;EL PRIMO
BROCK;COLT;PENNY;defeat;brawlBall;Backyard Bowl;102;BULL;COLT;NITA
BROCK;COLT;PENNY;victory;brawlBall;Backyard Bowl;150;BIBI;BO;FRANK
EL PRIMO;8-BIT;JESSIE;victory;siege;Olive Branch;94;DYNAMIKE;EMZ;TICK
BARLEY;8-BIT;EL PRIMO;victory;siege;Olive Branch;93;DYNAMIKE;FRANK;TICK
BEA;BARLEY;EL PRIMO;defeat;siege;Olive Branch;46;BO;COLT;RICO
BARLEY;EL PRIMO;POCO;victory;siege;Olive Branch;93;8-BIT;EMZ;JESSIE
PENNY;JESSIE;POCO;victory;siege;Olive Branch;137;BIBI;DYNAMIKE;POCO
PENNY;JESSIE;POCO;victory;siege;Olive Branch;95;DYNAMIKE;JACKY;TICK
PENNY;JESSIE;POCO;victory;siege;Olive Branch;98;BEA;BROCK;POCO
PENNY;JESSIE;POCO;victory;siege;Olive Branch;95;EMZ;FRANK;GENE
PENNY;8-BIT;JESSIE;victory;siege;Olive Branch;94;8-BIT;BIBI;SPROUT
FRANK;BO;PENNY;victory;siege;Olive Branch;145;JACKY;JESSIE;PAM
NITA;FRANK;JESSIE;victory;gemGrab;Escape Velocity;84;BROCK;PAM;TARA
NITA;FRANK;JESSIE;victory;gemGrab;Escape Velocity;83;COLT;DARRYL;POCO
NITA;FRANK;JESSIE;victory;gemGrab;Escape Velocity;112;FRANK;GENE;JACKY
POCO;BULL;CARL;victory;heist;Sandy Gems;59;EMZ;GENE;TICK
POCO;BULL;CARL;victory;heist;Sandy Gems;59;8-BIT;BARLEY;JESSIE
POCO;BARLEY;CARL;victory;brawlBall;Penalty Kick;139;BARLEY;CARL;SANDY
POCO;BARLEY;CARL;victory;brawlBall;Penalty Kick;62;BROCK;LEON;PAM
POCO;BARLEY;CARL;victory;brawlBall;Penalty Kick;87;COLT;SHELLY;TICK
POCO;8-BIT;JESSIE;defeat;hotZone;High Score;174;BIBI;EMZ;NITA
POCO;BULL;CARL;victory;heist;Sandy Gems;39;BARLEY;COLT;PENNY
POCO;BO;BROCK;defeat;hotZone;High Score;87;FRANK;PAM;ROSA
POCO;BO;BROCK;victory;hotZone;High Score;89;8-BIT;BO;RICO
POCO;BO;BROCK;victory;hotZone;High Score;95;DYNAMIKE;EMZ;JESSIE
POCO;BO;BROCK;victory;hotZone;High Score;69;BARLEY;MORTIS;POCO
POCO;BO;JESSIE;victory;hotZone;High Score;90;BROCK;JACKY;MAX
PENNY;COLT;JESSIE;victory;gemGrab;Escape Velocity;90;BROCK;NITA;SPIKE
BARLEY;JESSIE;SHELLY;victory;hotZone;High Score;119;BO;DARRYL;FRANK
POCO;BROCK;TICK;defeat;hotZone;High Score;108;BIBI;PAM;POCO
RICO;BULL;COLT;victory;heist;Sandy Gems;49;BO;BULL;TICK
EL PRIMO;JESSIE;RICO;victory;gemGrab;Escape Velocity;115;BARLEY;BULL;PIPER
