dzor_brawler;p1;p2;result;mode;map;duration;ad1_brawler;ad2_brawler;ad3_brawler
SPROUT;BEA;DYNAMIKE;defeat;gemGrab;Spare Space;84;CROW;RICO;TARA
SPIKE;BEA;POCO;victory;hotZone;Quarter Pounder;139;EMZ;SPROUT;TICK
SPIKE;BROCK;COLT;defeat;hotZone;Quarter Pounder;70;BULL;EMZ;POCO
SPIKE;COLT;EMZ;victory;hotZone;Quarter Pounder;112;EMZ;POCO;SPROUT
SPIKE;RICO;TICK;defeat;hotZone;Quarter Pounder;126;8-BIT;PAM;POCO
SPIKE;PIPER;SPROUT;victory;hotZone;Quarter Pounder;85;BEA;BULL;DARRYL
SPIKE;CARL;JACKY;defeat;hotZone;Quarter Pounder;116;8-BIT;EL PRIMO;EMZ
SPIKE;CARL;JACKY;victory;hotZone;Quarter Pounder;112;BROCK;EMZ;ROSA
SPROUT;GENE;SANDY;defeat;gemGrab;Spare Space;100;BEA;BROCK;SANDY
SPROUT;BEA;GENE;defeat;gemGrab;Spare Space;84;EMZ;JACKY;TICK
SPROUT;BO;NITA;victory;gemGrab;Spare Space;131;COLT;JACKY;MORTIS
SPROUT;BIBI;COLT;victory;gemGrab;Spare Space;110;BEA;RICO;TICK
SPROUT;BARLEY;GENE;victory;gemGrab;Spare Space;105;DARRYL;SPROUT;TARA
SPROUT;GENE;TICK;victory;gemGrab;Spare Space;82;BEA;PIPER;SPROUT
SPROUT;BARLEY;SANDY;victory;gemGrab;Spare Space;83;BARLEY;GENE;SPROUT
SPROUT;8-BIT;MR. P;victory;gemGrab;Spare Space;109;EL PRIMO;JESSIE;PIPER
SPIKE;DYNAMIKE;SPROUT;victory;brawlBall;Penalty Kick;150;BO;DARRYL;PENNY
SPIKE;MORTIS;SPROUT;defeat;brawlBall;Penalty Kick;150;BIBI;MORTIS;SPROUT
SPIKE;FRANK;SPROUT;defeat;brawlBall;Penalty Kick;152;BROCK;GENE;POCO
SPIKE;FRANK;SPROUT;victory;brawlBall;Penalty Kick;98;BROCK;FRANK;NITA
SPIKE;MAX;SPROUT;victory;brawlBall;Penalty Kick;153;EMZ;SPROUT;TICK
BULL;EL PRIMO;MAX;victory;brawlBall;Penalty Kick;150;BARLEY;COLT;CROW
BULL;COLT;MORTIS;defeat;brawlBall;Penalty Kick;112;EL PRIMO;PAM;PENNY
BULL;BEA;BIBI;defeat;brawlBall;Penalty Kick;150;BEA;BO;POCO
BULL;DARRYL;SHELLY;defeat;brawlBall;Triple Dribble;171;BULL;EL PRIMO;RICO
PAM;CROW;JESSIE;defeat;brawlBall;Triple Dribble;150;COLT;JESSIE;NITA
PAM;JESSIE;NITA;victory;brawlBall;Triple Dribble;150;EL PRIMO;JESSIE;SHELLY
BEA;BIBI;PIPER;victory;gemGrab;Escape Velocity;118;BIBI;COLT;MORTIS
BEA;GENE;JACKY;victory;gemGrab;Escape Velocity;89;BEA;SHELLY;TARA
SPIKE;GENE;MORTIS;victory;gemGrab;Escape Velocity;96;BROCK;DYNAMIKE;SHELLY
SPIKE;COLT;GENE;defeat;gemGrab;Escape Velocity;108;COLT;PAM;TARA
SPIKE;CARL;DYNAMIKE;defeat;gemGrab;Escape Velocity;114;BULL;DYNAMIKE;TICK
SPIKE;BEA;CARL;victory;brawlBall;Galaxy Arena;150;BARLEY;BO;CARL
POCO;DARRYL;MR. P;defeat;brawlBall;Galaxy Arena;164;BIBI;FRANK;SPIKE
POCO;DARRYL;MR. P;victory;brawlBall;Galaxy Arena;109;BIBI;DARRYL;FRANK
SPIKE;BO;MAX;victory;brawlBall;Galaxy Arena;84;BO;MORTIS;SPIKE
DARRYL;BROCK;TICK;defeat;brawlBall;Galaxy Arena;54;FRANK;JESSIE;ROSA
DARRYL;PENNY;POCO;defeat;gemGrab;Spring Trap;82;FRANK;JESSIE;POCO
DARRYL;ROSA;SPROUT;victory;brawlBall;Galaxy Arena;160;CARL;FRANK;SPIKE
